donato_netlist/sdf_example_genus/work/ro_netlist.vcd
$date
    May  3, 2026  13:01:51
$end
$version
    TOOL:	xmsim(64)	23.09-s001
$end
$timescale
    1 ps
$end

$scope module tb_netlist $end
$var reg       4 !    CTRL [3:0] $end
$var reg       1 "    NAND_CTRL1 $end
$var reg       1 #    NAND_CTRL2 $end
$var reg       1 $    NAND_CTRL3 $end
$var reg       1 %    CLK $end
$var reg       1 &    EN $end
$var integer  32 '    cycle_count $end
$var real     64 (    period_ns $end
$var real     64 )    freq_ghz $end
$var time     64 *    meas_start $end
$var integer  32 +    out_file $end
$var parameter 32 ,    MEAS_WINDOW $end

$scope module ro_dut $end
$var wire      1 -    EN  $end
$var wire      1 .    NAND_CTRL1  $end
$var wire      1 /    NAND_CTRL2  $end
$var wire      1 0    NAND_CTRL3  $end
$var wire      1 1    CTRL [4] $end
$var wire      1 2    CTRL [3] $end
$var wire      1 3    CTRL [2] $end
$var wire      1 4    CTRL [1] $end
$var wire      1 5    CTRL [0] $end
$var wire      1 6    CLK  $end
$var wire      1 7    UNCONNECTED  $end
$var wire      1 8    delay_out_1  $end
$var wire      1 9    delay_out_2  $end
$var wire      1 :    delay_out_3  $end
$var wire      1 ;    delay_out_4  $end
$var wire      1 <    delay_out_5  $end
$var wire      1 =    delay_out_6  $end
$var wire      1 >    delay_out_7  $end
$var wire      1 ?    delay_out_8  $end
$var wire      1 @    delay_out_9  $end
$var wire      1 A    delay_out_10  $end
$var wire      1 B    delay_out_11  $end
$var wire      1 C    delay_out_12  $end
$var wire      1 D    delay_out_13  $end
$var wire      1 E    delay_out_14  $end
$var wire      1 F    delay_out_15  $end
$var wire      1 G    delay_out_16  $end
$var wire      1 H    delay_out_17  $end
$var wire      1 I    delay_out_18  $end
$var wire      1 J    mux_1_1out  $end
$var wire      1 K    mux_1_2out  $end
$var wire      1 L    mux_1_3out  $end
$var wire      1 M    mux_1_4out  $end
$var wire      1 N    mux_1_5out  $end
$var wire      1 O    mux_1_6out  $end
$var wire      1 P    mux_2_1out  $end
$var wire      1 Q    mux_2_2out  $end
$var wire      1 R    n_11  $end
$var wire      1 S    n_12  $end
$var wire      1 T    n_13  $end
$var wire      1 U    n_14  $end
$var wire      1 V    n_15  $end
$var wire      1 W    n_16  $end
$var wire      1 X    n_17  $end
$var wire      1 Y    n_18  $end
$var wire      1 Z    n_19  $end
$var wire      1 [    n_20  $end
$var wire      1 \    n_21  $end
$var wire      1 ]    n_22  $end
$var wire      1 ^    n_23  $end
$var wire      1 _    n_24  $end
$var wire      1 `    n_25  $end
$var wire      1 a    n_26  $end
$var wire      1 b    n_27  $end
$var wire      1 c    n_28  $end
$var wire      1 d    nand_out  $end
$var wire      1 e    start_inv_out  $end

$scope module nand_gate_capacitor $end
$var wire      1 6    A1  $end
$var wire      1 .    A2  $end
$var wire      1 /    A3  $end
$var wire      1 0    A4  $end
$var wire      1 7    ZN  $end
$var wire      1 f    I0_out  $end
$upscope $end


$scope module enable_nand $end
$var wire      1 -    A1  $end
$var wire      1 6    A2  $end
$var wire      1 d    ZN  $end
$var wire      1 g    I0_out  $end
$upscope $end


$scope module start_inv $end
$var wire      1 d    I  $end
$var wire      1 e    ZN  $end
$upscope $end


$scope module delay_element1 $end
$var wire      1 e    I  $end
$var wire      1 8    Z  $end
$upscope $end


$scope module delay_element2 $end
$var wire      1 8    I  $end
$var wire      1 9    Z  $end
$upscope $end


$scope module delay_element3 $end
$var wire      1 9    I  $end
$var wire      1 :    Z  $end
$upscope $end


$scope module delay_element4 $end
$var wire      1 :    I  $end
$var wire      1 ;    Z  $end
$upscope $end


$scope module delay_element5 $end
$var wire      1 ;    I  $end
$var wire      1 <    Z  $end
$upscope $end


$scope module delay_element6 $end
$var wire      1 <    I  $end
$var wire      1 =    Z  $end
$upscope $end


$scope module delay_element7 $end
$var wire      1 =    I  $end
$var wire      1 >    Z  $end
$upscope $end


$scope module delay_element8 $end
$var wire      1 >    I  $end
$var wire      1 ?    Z  $end
$upscope $end


$scope module delay_element9 $end
$var wire      1 ?    I  $end
$var wire      1 @    Z  $end
$upscope $end


$scope module delay_element10 $end
$var wire      1 @    I  $end
$var wire      1 A    Z  $end
$upscope $end


$scope module delay_element11 $end
$var wire      1 A    I  $end
$var wire      1 B    Z  $end
$upscope $end


$scope module delay_element12 $end
$var wire      1 B    I  $end
$var wire      1 C    Z  $end
$upscope $end


$scope module delay_element13 $end
$var wire      1 C    I  $end
$var wire      1 D    Z  $end
$upscope $end


$scope module delay_element14 $end
$var wire      1 D    I  $end
$var wire      1 E    Z  $end
$upscope $end


$scope module delay_element15 $end
$var wire      1 E    I  $end
$var wire      1 F    Z  $end
$upscope $end


$scope module delay_element16 $end
$var wire      1 F    I  $end
$var wire      1 G    Z  $end
$upscope $end


$scope module delay_element17 $end
$var wire      1 G    I  $end
$var wire      1 H    Z  $end
$upscope $end


$scope module delay_element18 $end
$var wire      1 H    I  $end
$var wire      1 I    Z  $end
$upscope $end


$scope module mux_1_1 $end
$var wire      1 c    I0  $end
$var wire      1 b    I1  $end
$var wire      1 a    I2  $end
$var wire      1 5    S0  $end
$var wire      1 4    S1  $end
$var wire      1 J    ZN  $end
$var wire      1 h    I0_out  $end
$var wire      1 i    I1_out  $end
$upscope $end


$scope module mux_1_2 $end
$var wire      1 `    I0  $end
$var wire      1 _    I1  $end
$var wire      1 ^    I2  $end
$var wire      1 5    S0  $end
$var wire      1 4    S1  $end
$var wire      1 K    ZN  $end
$var wire      1 j    I0_out  $end
$var wire      1 k    I1_out  $end
$upscope $end


$scope module mux_1_3 $end
$var wire      1 ]    I0  $end
$var wire      1 \    I1  $end
$var wire      1 [    I2  $end
$var wire      1 5    S0  $end
$var wire      1 4    S1  $end
$var wire      1 L    ZN  $end
$var wire      1 l    I0_out  $end
$var wire      1 m    I1_out  $end
$upscope $end


$scope module mux_1_4 $end
$var wire      1 Z    I0  $end
$var wire      1 Y    I1  $end
$var wire      1 X    I2  $end
$var wire      1 5    S0  $end
$var wire      1 4    S1  $end
$var wire      1 M    ZN  $end
$var wire      1 n    I0_out  $end
$var wire      1 o    I1_out  $end
$upscope $end


$scope module mux_1_5 $end
$var wire      1 W    I0  $end
$var wire      1 V    I1  $end
$var wire      1 U    I2  $end
$var wire      1 5    S0  $end
$var wire      1 4    S1  $end
$var wire      1 N    ZN  $end
$var wire      1 p    I0_out  $end
$var wire      1 q    I1_out  $end
$upscope $end


$scope module mux_1_6 $end
$var wire      1 T    I0  $end
$var wire      1 S    I1  $end
$var wire      1 R    I2  $end
$var wire      1 5    S0  $end
$var wire      1 4    S1  $end
$var wire      1 O    ZN  $end
$var wire      1 r    I0_out  $end
$var wire      1 s    I1_out  $end
$upscope $end


$scope module mux_2_1 $end
$var wire      1 J    I0  $end
$var wire      1 K    I1  $end
$var wire      1 L    I2  $end
$var wire      1 3    S0  $end
$var wire      1 2    S1  $end
$var wire      1 P    ZN  $end
$var wire      1 t    I0_out  $end
$var wire      1 u    I1_out  $end
$upscope $end


$scope module mux_2_2 $end
$var wire      1 M    I0  $end
$var wire      1 N    I1  $end
$var wire      1 O    I2  $end
$var wire      1 3    S0  $end
$var wire      1 2    S1  $end
$var wire      1 Q    ZN  $end
$var wire      1 v    I0_out  $end
$var wire      1 w    I1_out  $end
$upscope $end


$scope module mux_3 $end
$var wire      1 P    I0  $end
$var wire      1 Q    I1  $end
$var wire      1 1    S  $end
$var wire      1 6    ZN  $end
$var wire      1 x    I0_out  $end
$upscope $end


$scope module cdn_loop_breaker $end
$var wire      1 I    I  $end
$var wire      1 R    Z  $end
$upscope $end


$scope module cdn_loop_breaker1 $end
$var wire      1 H    I  $end
$var wire      1 S    Z  $end
$upscope $end


$scope module cdn_loop_breaker2 $end
$var wire      1 G    I  $end
$var wire      1 T    Z  $end
$upscope $end


$scope module cdn_loop_breaker3 $end
$var wire      1 F    I  $end
$var wire      1 U    Z  $end
$upscope $end


$scope module cdn_loop_breaker4 $end
$var wire      1 E    I  $end
$var wire      1 V    Z  $end
$upscope $end


$scope module cdn_loop_breaker5 $end
$var wire      1 D    I  $end
$var wire      1 W    Z  $end
$upscope $end


$scope module cdn_loop_breaker6 $end
$var wire      1 C    I  $end
$var wire      1 X    Z  $end
$upscope $end


$scope module cdn_loop_breaker7 $end
$var wire      1 B    I  $end
$var wire      1 Y    Z  $end
$upscope $end


$scope module cdn_loop_breaker8 $end
$var wire      1 A    I  $end
$var wire      1 Z    Z  $end
$upscope $end


$scope module cdn_loop_breaker9 $end
$var wire      1 @    I  $end
$var wire      1 [    Z  $end
$upscope $end


$scope module cdn_loop_breaker10 $end
$var wire      1 ?    I  $end
$var wire      1 \    Z  $end
$upscope $end


$scope module cdn_loop_breaker11 $end
$var wire      1 >    I  $end
$var wire      1 ]    Z  $end
$upscope $end


$scope module cdn_loop_breaker12 $end
$var wire      1 =    I  $end
$var wire      1 ^    Z  $end
$upscope $end


$scope module cdn_loop_breaker13 $end
$var wire      1 <    I  $end
$var wire      1 _    Z  $end
$upscope $end


$scope module cdn_loop_breaker14 $end
$var wire      1 ;    I  $end
$var wire      1 `    Z  $end
$upscope $end


$scope module cdn_loop_breaker15 $end
$var wire      1 :    I  $end
$var wire      1 a    Z  $end
$upscope $end


$scope module cdn_loop_breaker16 $end
$var wire      1 9    I  $end
$var wire      1 b    Z  $end
$upscope $end


$scope module cdn_loop_breaker17 $end
$var wire      1 8    I  $end
$var wire      1 c    Z  $end
$upscope $end

$upscope $end

$upscope $end

$enddefinitions $end
$dumpvars
b10100 ,
b0 !
0"
0#
0$
x%
0&
bx '
r0 (
r0 )
bx *
b10000000000000000000000000000011 +
0-
0.
0/
00
01
02
03
04
05
x6
x7
x8
x9
x:
x;
x<
x=
x>
x?
x@
xA
xB
xC
xD
xE
xF
xG
xH
xI
xJ
xK
xL
xM
xN
xO
xP
xQ
xR
xS
xT
xU
xV
xW
xX
xY
xZ
x[
x\
x]
x^
x_
x`
xa
xb
xc
xd
xe
0f
0g
xh
xi
xj
xk
xl
xm
xn
xo
xp
xq
xr
xs
xt
xu
xv
xw
xx
$end
#4
17
#5
1d
#12
0e
#29
08
0c
0h
0i
1J
1t
1u
#47
09
0b
#65
0:
0a
#76
0P
0x
#83
0;
0`
0j
0k
1K
#101
0<
0_
#114
16
1%
#119
0=
0^
#137
0>
0]
0l
0m
1L
#155
0?
0\
#173
0@
0[
#191
0A
0Z
0n
0o
1M
1v
1w
#209
0B
0Y
#227
0C
0X
#238
0Q
#245
0D
0W
0p
0q
1N
#263
0E
0V
#281
0F
0U
#299
0G
0T
0r
0s
1O
#317
0H
0S
#333
0I
0R
#10000
1&
1-
1g
#10008
0d
#10016
1e
#10033
18
1c
1h
1i
0J
0t
0u
#10051
19
1b
#10069
1:
1a
#10081
1P
1x
#10087
1;
1`
1j
1k
0K
#10105
1<
1_
#10118
06
0g
0%
#10123
1=
1^
#10128
1d
#10135
0e
#10141
1>
1]
1l
1m
0L
#10152
08
0c
0h
0i
1J
1t
1u
#10159
1?
1\
#10170
09
0b
#10177
1@
1[
#10188
0:
0a
#10195
1A
1Z
1n
1o
0M
0v
0w
#10199
0P
0x
#10206
0;
0`
0j
0k
1K
#10213
1B
1Y
#10224
0<
0_
#10231
1C
1X
#10237
16
1g
1%
#10242
0=
0^
#10243
1Q
#10249
1D
1W
1p
1q
0N
#10250
0d
#10258
1e
#10260
0>
0]
0l
0m
1L
#10267
1E
1V
#10275
18
1c
1h
1i
0J
0t
0u
#10278
0?
0\
#10285
1F
1U
#10293
19
1b
#10296
0@
0[
#10303
1G
1T
1r
1s
0O
#10311
1:
1a
#10314
0A
0Z
0n
0o
1M
1v
1w
#10321
1H
1S
#10323
1P
1x
#10329
1;
1`
1j
1k
0K
#10332
0B
0Y
#10337
1I
1R
#10347
1<
1_
#10350
0C
0X
#10360
06
0g
0%
#10361
0Q
#10365
1=
1^
#10368
0D
0W
0p
0q
1N
#10370
1d
#10377
0e
#10383
1>
1]
1l
1m
0L
#10386
0E
0V
#10394
08
0c
0h
0i
1J
1t
1u
#10401
1?
1\
#10404
0F
0U
#10412
09
0b
#10419
1@
1[
#10422
0G
0T
0r
0s
1O
#10430
0:
0a
#10437
1A
1Z
1n
1o
0M
0v
0w
#10440
0H
0S
#10441
0P
0x
#10448
0;
0`
0j
0k
1K
#10455
1B
1Y
#10456
0I
0R
#10466
0<
0_
#10473
1C
1X
#10479
16
1g
1%
#10484
0=
0^
#10485
1Q
#10491
1D
1W
1p
1q
0N
#10492
0d
#10500
1e
#10502
0>
0]
0l
0m
1L
#10509
1E
1V
#10517
18
1c
1h
1i
0J
0t
0u
#10520
0?
0\
#10527
1F
1U
#10535
19
1b
#10538
0@
0[
#10545
1G
1T
1r
1s
0O
#10553
1:
1a
#10556
0A
0Z
0n
0o
1M
1v
1w
#10563
1H
1S
#10565
1P
1x
#10571
1;
1`
1j
1k
0K
#10574
0B
0Y
#10579
1I
1R
#10589
1<
1_
#10592
0C
0X
#10602
06
0g
0%
#10603
0Q
#10607
1=
1^
#10610
0D
0W
0p
0q
1N
#10612
1d
#10619
0e
#10625
1>
1]
1l
1m
0L
#10628
0E
0V
#10636
08
0c
0h
0i
1J
1t
1u
#10643
1?
1\
#10646
0F
0U
#10654
09
0b
#10661
1@
1[
#10664
0G
0T
0r
0s
1O
#10672
0:
0a
#10679
1A
1Z
1n
1o
0M
0v
0w
#10682
0H
0S
#10683
0P
0x
#10690
0;
0`
0j
0k
1K
#10697
1B
1Y
#10698
0I
0R
#10708
0<
0_
#10715
1C
1X
#10721
16
1g
1%
#10726
0=
0^
#10727
1Q
#10733
1D
1W
1p
1q
0N
#10734
0d
#10742
1e
#10744
0>
0]
0l
0m
1L
#10751
1E
1V
#10759
18
1c
1h
1i
0J
0t
0u
#10762
0?
0\
#10769
1F
1U
#10777
19
1b
#10780
0@
0[
#10787
1G
1T
1r
1s
0O
#10795
1:
1a
#10798
0A
0Z
0n
0o
1M
1v
1w
#10805
1H
1S
#10807
1P
1x
#10813
1;
1`
1j
1k
0K
#10816
0B
0Y
#10821
1I
1R
#10831
1<
1_
#10834
0C
0X
#10844
06
0g
0%
#10845
0Q
#10849
1=
1^
#10852
0D
0W
0p
0q
1N
#10854
1d
#10861
0e
#10867
1>
1]
1l
1m
0L
#10870
0E
0V
#10878
08
0c
0h
0i
1J
1t
1u
#10885
1?
1\
#10888
0F
0U
#10896
09
0b
#10903
1@
1[
#10906
0G
0T
0r
0s
1O
#10914
0:
0a
#10921
1A
1Z
1n
1o
0M
0v
0w
#10924
0H
0S
#10925
0P
0x
#10932
0;
0`
0j
0k
1K
#10939
1B
1Y
#10940
0I
0R
#10950
0<
0_
#10957
1C
1X
#10963
16
1g
1%
#10968
0=
0^
#10969
1Q
#10975
1D
1W
1p
1q
0N
#10976
0d
#10984
1e
#10986
0>
0]
0l
0m
1L
#10993
1E
1V
#11001
18
1c
1h
1i
0J
0t
0u
#11004
0?
0\
#11011
1F
1U
#11019
19
1b
#11022
0@
0[
#11029
1G
1T
1r
1s
0O
#11037
1:
1a
#11040
0A
0Z
0n
0o
1M
1v
1w
#11047
1H
1S
#11049
1P
1x
#11055
1;
1`
1j
1k
0K
#11058
0B
0Y
#11063
1I
1R
#11073
1<
1_
#11076
0C
0X
#11086
06
0g
0%
#11087
0Q
#11091
1=
1^
#11094
0D
0W
0p
0q
1N
#11096
1d
#11103
0e
#11109
1>
1]
1l
1m
0L
#11112
0E
0V
#11120
08
0c
0h
0i
1J
1t
1u
#11127
1?
1\
#11130
0F
0U
#11138
09
0b
#11145
1@
1[
#11148
0G
0T
0r
0s
1O
#11156
0:
0a
#11163
1A
1Z
1n
1o
0M
0v
0w
#11166
0H
0S
#11167
0P
0x
#11174
0;
0`
0j
0k
1K
#11181
1B
1Y
#11182
0I
0R
#11192
0<
0_
#11199
1C
1X
#11205
16
1g
1%
#11210
0=
0^
#11211
1Q
#11217
1D
1W
1p
1q
0N
#11218
0d
#11226
1e
#11228
0>
0]
0l
0m
1L
#11235
1E
1V
#11243
18
1c
1h
1i
0J
0t
0u
#11246
0?
0\
#11253
1F
1U
#11261
19
1b
#11264
0@
0[
#11271
1G
1T
1r
1s
0O
#11279
1:
1a
#11282
0A
0Z
0n
0o
1M
1v
1w
#11289
1H
1S
#11291
1P
1x
#11297
1;
1`
1j
1k
0K
#11300
0B
0Y
#11305
1I
1R
#11315
1<
1_
#11318
0C
0X
#11328
06
0g
0%
#11329
0Q
#11333
1=
1^
#11336
0D
0W
0p
0q
1N
#11338
1d
#11345
0e
#11351
1>
1]
1l
1m
0L
#11354
0E
0V
#11362
08
0c
0h
0i
1J
1t
1u
#11369
1?
1\
#11372
0F
0U
#11380
09
0b
#11387
1@
1[
#11390
0G
0T
0r
0s
1O
#11398
0:
0a
#11405
1A
1Z
1n
1o
0M
0v
0w
#11408
0H
0S
#11409
0P
0x
#11416
0;
0`
0j
0k
1K
#11423
1B
1Y
#11424
0I
0R
#11434
0<
0_
#11441
1C
1X
#11447
16
1g
1%
#11452
0=
0^
#11453
1Q
#11459
1D
1W
1p
1q
0N
#11460
0d
#11468
1e
#11470
0>
0]
0l
0m
1L
#11477
1E
1V
#11485
18
1c
1h
1i
0J
0t
0u
#11488
0?
0\
#11495
1F
1U
#11503
19
1b
#11506
0@
0[
#11513
1G
1T
1r
1s
0O
#11521
1:
1a
#11524
0A
0Z
0n
0o
1M
1v
1w
#11531
1H
1S
#11533
1P
1x
#11539
1;
1`
1j
1k
0K
#11542
0B
0Y
#11547
1I
1R
#11557
1<
1_
#11560
0C
0X
#11570
06
0g
0%
#11571
0Q
#11575
1=
1^
#11578
0D
0W
0p
0q
1N
#11580
1d
#11587
0e
#11593
1>
1]
1l
1m
0L
#11596
0E
0V
#11604
08
0c
0h
0i
1J
1t
1u
#11611
1?
1\
#11614
0F
0U
#11622
09
0b
#11629
1@
1[
#11632
0G
0T
0r
0s
1O
#11640
0:
0a
#11647
1A
1Z
1n
1o
0M
0v
0w
#11650
0H
0S
#11651
0P
0x
#11658
0;
0`
0j
0k
1K
#11665
1B
1Y
#11666
0I
0R
#11676
0<
0_
#11683
1C
1X
#11689
16
1g
1%
#11694
0=
0^
#11695
1Q
#11701
1D
1W
1p
1q
0N
#11702
0d
#11710
1e
#11712
0>
0]
0l
0m
1L
#11719
1E
1V
#11727
18
1c
1h
1i
0J
0t
0u
#11730
0?
0\
#11737
1F
1U
#11745
19
1b
#11748
0@
0[
#11755
1G
1T
1r
1s
0O
#11763
1:
1a
#11766
0A
0Z
0n
0o
1M
1v
1w
#11773
1H
1S
#11775
1P
1x
#11781
1;
1`
1j
1k
0K
#11784
0B
0Y
#11789
1I
1R
#11799
1<
1_
#11802
0C
0X
#11812
06
0g
0%
#11813
0Q
#11817
1=
1^
#11820
0D
0W
0p
0q
1N
#11822
1d
#11829
0e
#11835
1>
1]
1l
1m
0L
#11838
0E
0V
#11846
08
0c
0h
0i
1J
1t
1u
#11853
1?
1\
#11856
0F
0U
#11864
09
0b
#11871
1@
1[
#11874
0G
0T
0r
0s
1O
#11882
0:
0a
#11889
1A
1Z
1n
1o
0M
0v
0w
#11892
0H
0S
#11893
0P
0x
#11900
0;
0`
0j
0k
1K
#11907
1B
1Y
#11908
0I
0R
#11918
0<
0_
#11925
1C
1X
#11931
16
1g
1%
#11936
0=
0^
#11937
1Q
#11943
1D
1W
1p
1q
0N
#11944
0d
#11952
1e
#11954
0>
0]
0l
0m
1L
#11961
1E
1V
#11969
18
1c
1h
1i
0J
0t
0u
#11972
0?
0\
#11979
1F
1U
#11987
19
1b
#11990
0@
0[
#11997
1G
1T
1r
1s
0O
#12005
1:
1a
#12008
0A
0Z
0n
0o
1M
1v
1w
#12015
1H
1S
#12017
1P
1x
#12023
1;
1`
1j
1k
0K
#12026
0B
0Y
#12031
1I
1R
#12041
1<
1_
#12044
0C
0X
#12054
06
0g
0%
#12055
0Q
#12059
1=
1^
#12062
0D
0W
0p
0q
1N
#12064
1d
#12071
0e
#12077
1>
1]
1l
1m
0L
#12080
0E
0V
#12088
08
0c
0h
0i
1J
1t
1u
#12095
1?
1\
#12098
0F
0U
#12106
09
0b
#12113
1@
1[
#12116
0G
0T
0r
0s
1O
#12124
0:
0a
#12131
1A
1Z
1n
1o
0M
0v
0w
#12134
0H
0S
#12135
0P
0x
#12142
0;
0`
0j
0k
1K
#12149
1B
1Y
#12150
0I
0R
#12160
0<
0_
#12167
1C
1X
#12173
16
1g
1%
#12178
0=
0^
#12179
1Q
#12185
1D
1W
1p
1q
0N
#12186
0d
#12194
1e
#12196
0>
0]
0l
0m
1L
#12203
1E
1V
#12211
18
1c
1h
1i
0J
0t
0u
#12214
0?
0\
#12221
1F
1U
#12229
19
1b
#12232
0@
0[
#12239
1G
1T
1r
1s
0O
#12247
1:
1a
#12250
0A
0Z
0n
0o
1M
1v
1w
#12257
1H
1S
#12259
1P
1x
#12265
1;
1`
1j
1k
0K
#12268
0B
0Y
#12273
1I
1R
#12283
1<
1_
#12286
0C
0X
#12296
06
0g
0%
#12297
0Q
#12301
1=
1^
#12304
0D
0W
0p
0q
1N
#12306
1d
#12313
0e
#12319
1>
1]
1l
1m
0L
#12322
0E
0V
#12330
08
0c
0h
0i
1J
1t
1u
#12337
1?
1\
#12340
0F
0U
#12348
09
0b
#12355
1@
1[
#12358
0G
0T
0r
0s
1O
#12366
0:
0a
#12373
1A
1Z
1n
1o
0M
0v
0w
#12376
0H
0S
#12377
0P
0x
#12384
0;
0`
0j
0k
1K
#12391
1B
1Y
#12392
0I
0R
#12402
0<
0_
#12409
1C
1X
#12415
16
1g
1%
#12420
0=
0^
#12421
1Q
#12427
1D
1W
1p
1q
0N
#12428
0d
#12436
1e
#12438
0>
0]
0l
0m
1L
#12445
1E
1V
#12453
18
1c
1h
1i
0J
0t
0u
#12456
0?
0\
#12463
1F
1U
#12471
19
1b
#12474
0@
0[
#12481
1G
1T
1r
1s
0O
#12489
1:
1a
#12492
0A
0Z
0n
0o
1M
1v
1w
#12499
1H
1S
#12501
1P
1x
#12507
1;
1`
1j
1k
0K
#12510
0B
0Y
#12515
1I
1R
#12525
1<
1_
#12528
0C
0X
#12538
06
0g
0%
#12539
0Q
#12543
1=
1^
#12546
0D
0W
0p
0q
1N
#12548
1d
#12555
0e
#12561
1>
1]
1l
1m
0L
#12564
0E
0V
#12572
08
0c
0h
0i
1J
1t
1u
#12579
1?
1\
#12582
0F
0U
#12590
09
0b
#12597
1@
1[
#12600
0G
0T
0r
0s
1O
#12608
0:
0a
#12615
1A
1Z
1n
1o
0M
0v
0w
#12618
0H
0S
#12619
0P
0x
#12626
0;
0`
0j
0k
1K
#12633
1B
1Y
#12634
0I
0R
#12644
0<
0_
#12651
1C
1X
#12657
16
1g
1%
#12662
0=
0^
#12663
1Q
#12669
1D
1W
1p
1q
0N
#12670
0d
#12678
1e
#12680
0>
0]
0l
0m
1L
#12687
1E
1V
#12695
18
1c
1h
1i
0J
0t
0u
#12698
0?
0\
#12705
1F
1U
#12713
19
1b
#12716
0@
0[
#12723
1G
1T
1r
1s
0O
#12731
1:
1a
#12734
0A
0Z
0n
0o
1M
1v
1w
#12741
1H
1S
#12743
1P
1x
#12749
1;
1`
1j
1k
0K
#12752
0B
0Y
#12757
1I
1R
#12767
1<
1_
#12770
0C
0X
#12780
06
0g
0%
#12781
0Q
#12785
1=
1^
#12788
0D
0W
0p
0q
1N
#12790
1d
#12797
0e
#12803
1>
1]
1l
1m
0L
#12806
0E
0V
#12814
08
0c
0h
0i
1J
1t
1u
#12821
1?
1\
#12824
0F
0U
#12832
09
0b
#12839
1@
1[
#12842
0G
0T
0r
0s
1O
#12850
0:
0a
#12857
1A
1Z
1n
1o
0M
0v
0w
#12860
0H
0S
#12861
0P
0x
#12868
0;
0`
0j
0k
1K
#12875
1B
1Y
#12876
0I
0R
#12886
0<
0_
#12893
1C
1X
#12899
16
1g
1%
#12904
0=
0^
#12905
1Q
#12911
1D
1W
1p
1q
0N
#12912
0d
#12920
1e
#12922
0>
0]
0l
0m
1L
#12929
1E
1V
#12937
18
1c
1h
1i
0J
0t
0u
#12940
0?
0\
#12947
1F
1U
#12955
19
1b
#12958
0@
0[
#12965
1G
1T
1r
1s
0O
#12973
1:
1a
#12976
0A
0Z
0n
0o
1M
1v
1w
#12983
1H
1S
#12985
1P
1x
#12991
1;
1`
1j
1k
0K
#12994
0B
0Y
#12999
1I
1R
#13009
1<
1_
#13012
0C
0X
#13022
06
0g
0%
#13023
0Q
#13027
1=
1^
#13030
0D
0W
0p
0q
1N
#13032
1d
#13039
0e
#13045
1>
1]
1l
1m
0L
#13048
0E
0V
#13056
08
0c
0h
0i
1J
1t
1u
#13063
1?
1\
#13066
0F
0U
#13074
09
0b
#13081
1@
1[
#13084
0G
0T
0r
0s
1O
#13092
0:
0a
#13099
1A
1Z
1n
1o
0M
0v
0w
#13102
0H
0S
#13103
0P
0x
#13110
0;
0`
0j
0k
1K
#13117
1B
1Y
#13118
0I
0R
#13128
0<
0_
#13135
1C
1X
#13141
16
1g
1%
#13146
0=
0^
#13147
1Q
#13153
1D
1W
1p
1q
0N
#13154
0d
#13162
1e
#13164
0>
0]
0l
0m
1L
#13171
1E
1V
#13179
18
1c
1h
1i
0J
0t
0u
#13182
0?
0\
#13189
1F
1U
#13197
19
1b
#13200
0@
0[
#13207
1G
1T
1r
1s
0O
#13215
1:
1a
#13218
0A
0Z
0n
0o
1M
1v
1w
#13225
1H
1S
#13227
1P
1x
#13233
1;
1`
1j
1k
0K
#13236
0B
0Y
#13241
1I
1R
#13251
1<
1_
#13254
0C
0X
#13264
06
0g
0%
#13265
0Q
#13269
1=
1^
#13272
0D
0W
0p
0q
1N
#13274
1d
#13281
0e
#13287
1>
1]
1l
1m
0L
#13290
0E
0V
#13298
08
0c
0h
0i
1J
1t
1u
#13305
1?
1\
#13308
0F
0U
#13316
09
0b
#13323
1@
1[
#13326
0G
0T
0r
0s
1O
#13334
0:
0a
#13341
1A
1Z
1n
1o
0M
0v
0w
#13344
0H
0S
#13345
0P
0x
#13352
0;
0`
0j
0k
1K
#13359
1B
1Y
#13360
0I
0R
#13370
0<
0_
#13377
1C
1X
#13383
16
1g
1%
#13388
0=
0^
#13389
1Q
#13395
1D
1W
1p
1q
0N
#13396
0d
#13404
1e
#13406
0>
0]
0l
0m
1L
#13413
1E
1V
#13421
18
1c
1h
1i
0J
0t
0u
#13424
0?
0\
#13431
1F
1U
#13439
19
1b
#13442
0@
0[
#13449
1G
1T
1r
1s
0O
#13457
1:
1a
#13460
0A
0Z
0n
0o
1M
1v
1w
#13467
1H
1S
#13469
1P
1x
#13475
1;
1`
1j
1k
0K
#13478
0B
0Y
#13483
1I
1R
#13493
1<
1_
#13496
0C
0X
#13506
06
0g
0%
#13507
0Q
#13511
1=
1^
#13514
0D
0W
0p
0q
1N
#13516
1d
#13523
0e
#13529
1>
1]
1l
1m
0L
#13532
0E
0V
#13540
08
0c
0h
0i
1J
1t
1u
#13547
1?
1\
#13550
0F
0U
#13558
09
0b
#13565
1@
1[
#13568
0G
0T
0r
0s
1O
#13576
0:
0a
#13583
1A
1Z
1n
1o
0M
0v
0w
#13586
0H
0S
#13587
0P
0x
#13594
0;
0`
0j
0k
1K
#13601
1B
1Y
#13602
0I
0R
#13612
0<
0_
#13619
1C
1X
#13625
16
1g
1%
#13630
0=
0^
#13631
1Q
#13637
1D
1W
1p
1q
0N
#13638
0d
#13646
1e
#13648
0>
0]
0l
0m
1L
#13655
1E
1V
#13663
18
1c
1h
1i
0J
0t
0u
#13666
0?
0\
#13673
1F
1U
#13681
19
1b
#13684
0@
0[
#13691
1G
1T
1r
1s
0O
#13699
1:
1a
#13702
0A
0Z
0n
0o
1M
1v
1w
#13709
1H
1S
#13711
1P
1x
#13717
1;
1`
1j
1k
0K
#13720
0B
0Y
#13725
1I
1R
#13735
1<
1_
#13738
0C
0X
#13748
06
0g
0%
#13749
0Q
#13753
1=
1^
#13756
0D
0W
0p
0q
1N
#13758
1d
#13765
0e
#13771
1>
1]
1l
1m
0L
#13774
0E
0V
#13782
08
0c
0h
0i
1J
1t
1u
#13789
1?
1\
#13792
0F
0U
#13800
09
0b
#13807
1@
1[
#13810
0G
0T
0r
0s
1O
#13818
0:
0a
#13825
1A
1Z
1n
1o
0M
0v
0w
#13828
0H
0S
#13829
0P
0x
#13836
0;
0`
0j
0k
1K
#13843
1B
1Y
#13844
0I
0R
#13854
0<
0_
#13861
1C
1X
#13867
16
1g
1%
#13872
0=
0^
#13873
1Q
#13879
1D
1W
1p
1q
0N
#13880
0d
#13888
1e
#13890
0>
0]
0l
0m
1L
#13897
1E
1V
#13905
18
1c
1h
1i
0J
0t
0u
#13908
0?
0\
#13915
1F
1U
#13923
19
1b
#13926
0@
0[
#13933
1G
1T
1r
1s
0O
#13941
1:
1a
#13944
0A
0Z
0n
0o
1M
1v
1w
#13951
1H
1S
#13953
1P
1x
#13959
1;
1`
1j
1k
0K
#13962
0B
0Y
#13967
1I
1R
#13977
1<
1_
#13980
0C
0X
#13990
06
0g
0%
#13991
0Q
#13995
1=
1^
#13998
0D
0W
0p
0q
1N
#14000
1d
#14007
0e
#14013
1>
1]
1l
1m
0L
#14016
0E
0V
#14024
08
0c
0h
0i
1J
1t
1u
#14031
1?
1\
#14034
0F
0U
#14042
09
0b
#14049
1@
1[
#14052
0G
0T
0r
0s
1O
#14060
0:
0a
#14067
1A
1Z
1n
1o
0M
0v
0w
#14070
0H
0S
#14071
0P
0x
#14078
0;
0`
0j
0k
1K
#14085
1B
1Y
#14086
0I
0R
#14096
0<
0_
#14103
1C
1X
#14109
16
1g
1%
#14114
0=
0^
#14115
1Q
