donato_netlist/sdf_example_genus/work/ro_netlist.vcd
$date
    May  3, 2026  12:40:32
$end
$version
    TOOL:	xmsim(64)	23.09-s001
$end
$timescale
    1 ps
$end

$scope module tb_netlist $end
$var reg       4 !    CTRL [3:0] $end
$var reg       1 "    NAND_CTRL1 $end
$var reg       1 #    NAND_CTRL2 $end
$var reg       1 $    NAND_CTRL3 $end
$var reg       1 %    CLK $end
$var reg       1 &    EN $end

$scope module ro_dut $end
$var wire      1 '    EN  $end
$var wire      1 (    NAND_CTRL1  $end
$var wire      1 )    NAND_CTRL2  $end
$var wire      1 *    NAND_CTRL3  $end
$var wire      1 +    CTRL [4] $end
$var wire      1 ,    CTRL [3] $end
$var wire      1 -    CTRL [2] $end
$var wire      1 .    CTRL [1] $end
$var wire      1 /    CTRL [0] $end
$var wire      1 0    CLK  $end
$var wire      1 1    UNCONNECTED  $end
$var wire      1 2    delay_out_1  $end
$var wire      1 3    delay_out_2  $end
$var wire      1 4    delay_out_3  $end
$var wire      1 5    delay_out_4  $end
$var wire      1 6    delay_out_5  $end
$var wire      1 7    delay_out_6  $end
$var wire      1 8    delay_out_7  $end
$var wire      1 9    delay_out_8  $end
$var wire      1 :    delay_out_9  $end
$var wire      1 ;    delay_out_10  $end
$var wire      1 <    delay_out_11  $end
$var wire      1 =    delay_out_12  $end
$var wire      1 >    delay_out_13  $end
$var wire      1 ?    delay_out_14  $end
$var wire      1 @    delay_out_15  $end
$var wire      1 A    delay_out_16  $end
$var wire      1 B    delay_out_17  $end
$var wire      1 C    delay_out_18  $end
$var wire      1 D    mux_1_1out  $end
$var wire      1 E    mux_1_2out  $end
$var wire      1 F    mux_1_3out  $end
$var wire      1 G    mux_1_4out  $end
$var wire      1 H    mux_1_5out  $end
$var wire      1 I    mux_1_6out  $end
$var wire      1 J    mux_2_1out  $end
$var wire      1 K    mux_2_2out  $end
$var wire      1 L    n_11  $end
$var wire      1 M    n_12  $end
$var wire      1 N    n_13  $end
$var wire      1 O    n_14  $end
$var wire      1 P    n_15  $end
$var wire      1 Q    n_16  $end
$var wire      1 R    n_17  $end
$var wire      1 S    n_18  $end
$var wire      1 T    n_19  $end
$var wire      1 U    n_20  $end
$var wire      1 V    n_21  $end
$var wire      1 W    n_22  $end
$var wire      1 X    n_23  $end
$var wire      1 Y    n_24  $end
$var wire      1 Z    n_25  $end
$var wire      1 [    n_26  $end
$var wire      1 \    n_27  $end
$var wire      1 ]    n_28  $end
$var wire      1 ^    nand_out  $end
$var wire      1 _    start_inv_out  $end

$scope module nand_gate_capacitor $end
$var wire      1 0    A1  $end
$var wire      1 (    A2  $end
$var wire      1 )    A3  $end
$var wire      1 *    A4  $end
$var wire      1 1    ZN  $end
$var wire      1 `    I0_out  $end
$upscope $end


$scope module enable_nand $end
$var wire      1 '    A1  $end
$var wire      1 0    A2  $end
$var wire      1 ^    ZN  $end
$var wire      1 a    I0_out  $end
$upscope $end


$scope module start_inv $end
$var wire      1 ^    I  $end
$var wire      1 _    ZN  $end
$upscope $end


$scope module delay_element1 $end
$var wire      1 _    I  $end
$var wire      1 2    Z  $end
$upscope $end


$scope module delay_element2 $end
$var wire      1 2    I  $end
$var wire      1 3    Z  $end
$upscope $end


$scope module delay_element3 $end
$var wire      1 3    I  $end
$var wire      1 4    Z  $end
$upscope $end


$scope module delay_element4 $end
$var wire      1 4    I  $end
$var wire      1 5    Z  $end
$upscope $end


$scope module delay_element5 $end
$var wire      1 5    I  $end
$var wire      1 6    Z  $end
$upscope $end


$scope module delay_element6 $end
$var wire      1 6    I  $end
$var wire      1 7    Z  $end
$upscope $end


$scope module delay_element7 $end
$var wire      1 7    I  $end
$var wire      1 8    Z  $end
$upscope $end


$scope module delay_element8 $end
$var wire      1 8    I  $end
$var wire      1 9    Z  $end
$upscope $end


$scope module delay_element9 $end
$var wire      1 9    I  $end
$var wire      1 :    Z  $end
$upscope $end


$scope module delay_element10 $end
$var wire      1 :    I  $end
$var wire      1 ;    Z  $end
$upscope $end


$scope module delay_element11 $end
$var wire      1 ;    I  $end
$var wire      1 <    Z  $end
$upscope $end


$scope module delay_element12 $end
$var wire      1 <    I  $end
$var wire      1 =    Z  $end
$upscope $end


$scope module delay_element13 $end
$var wire      1 =    I  $end
$var wire      1 >    Z  $end
$upscope $end


$scope module delay_element14 $end
$var wire      1 >    I  $end
$var wire      1 ?    Z  $end
$upscope $end


$scope module delay_element15 $end
$var wire      1 ?    I  $end
$var wire      1 @    Z  $end
$upscope $end


$scope module delay_element16 $end
$var wire      1 @    I  $end
$var wire      1 A    Z  $end
$upscope $end


$scope module delay_element17 $end
$var wire      1 A    I  $end
$var wire      1 B    Z  $end
$upscope $end


$scope module delay_element18 $end
$var wire      1 B    I  $end
$var wire      1 C    Z  $end
$upscope $end


$scope module mux_1_1 $end
$var wire      1 ]    I0  $end
$var wire      1 \    I1  $end
$var wire      1 [    I2  $end
$var wire      1 /    S0  $end
$var wire      1 .    S1  $end
$var wire      1 D    ZN  $end
$var wire      1 b    I0_out  $end
$var wire      1 c    I1_out  $end
$upscope $end


$scope module mux_1_2 $end
$var wire      1 Z    I0  $end
$var wire      1 Y    I1  $end
$var wire      1 X    I2  $end
$var wire      1 /    S0  $end
$var wire      1 .    S1  $end
$var wire      1 E    ZN  $end
$var wire      1 d    I0_out  $end
$var wire      1 e    I1_out  $end
$upscope $end


$scope module mux_1_3 $end
$var wire      1 W    I0  $end
$var wire      1 V    I1  $end
$var wire      1 U    I2  $end
$var wire      1 /    S0  $end
$var wire      1 .    S1  $end
$var wire      1 F    ZN  $end
$var wire      1 f    I0_out  $end
$var wire      1 g    I1_out  $end
$upscope $end


$scope module mux_1_4 $end
$var wire      1 T    I0  $end
$var wire      1 S    I1  $end
$var wire      1 R    I2  $end
$var wire      1 /    S0  $end
$var wire      1 .    S1  $end
$var wire      1 G    ZN  $end
$var wire      1 h    I0_out  $end
$var wire      1 i    I1_out  $end
$upscope $end


$scope module mux_1_5 $end
$var wire      1 Q    I0  $end
$var wire      1 P    I1  $end
$var wire      1 O    I2  $end
$var wire      1 /    S0  $end
$var wire      1 .    S1  $end
$var wire      1 H    ZN  $end
$var wire      1 j    I0_out  $end
$var wire      1 k    I1_out  $end
$upscope $end


$scope module mux_1_6 $end
$var wire      1 N    I0  $end
$var wire      1 M    I1  $end
$var wire      1 L    I2  $end
$var wire      1 /    S0  $end
$var wire      1 .    S1  $end
$var wire      1 I    ZN  $end
$var wire      1 l    I0_out  $end
$var wire      1 m    I1_out  $end
$upscope $end


$scope module mux_2_1 $end
$var wire      1 D    I0  $end
$var wire      1 E    I1  $end
$var wire      1 F    I2  $end
$var wire      1 -    S0  $end
$var wire      1 ,    S1  $end
$var wire      1 J    ZN  $end
$var wire      1 n    I0_out  $end
$var wire      1 o    I1_out  $end
$upscope $end


$scope module mux_2_2 $end
$var wire      1 G    I0  $end
$var wire      1 H    I1  $end
$var wire      1 I    I2  $end
$var wire      1 -    S0  $end
$var wire      1 ,    S1  $end
$var wire      1 K    ZN  $end
$var wire      1 p    I0_out  $end
$var wire      1 q    I1_out  $end
$upscope $end


$scope module mux_3 $end
$var wire      1 J    I0  $end
$var wire      1 K    I1  $end
$var wire      1 +    S  $end
$var wire      1 0    ZN  $end
$var wire      1 r    I0_out  $end
$upscope $end


$scope module cdn_loop_breaker $end
$var wire      1 C    I  $end
$var wire      1 L    Z  $end
$upscope $end


$scope module cdn_loop_breaker1 $end
$var wire      1 B    I  $end
$var wire      1 M    Z  $end
$upscope $end


$scope module cdn_loop_breaker2 $end
$var wire      1 A    I  $end
$var wire      1 N    Z  $end
$upscope $end


$scope module cdn_loop_breaker3 $end
$var wire      1 @    I  $end
$var wire      1 O    Z  $end
$upscope $end


$scope module cdn_loop_breaker4 $end
$var wire      1 ?    I  $end
$var wire      1 P    Z  $end
$upscope $end


$scope module cdn_loop_breaker5 $end
$var wire      1 >    I  $end
$var wire      1 Q    Z  $end
$upscope $end


$scope module cdn_loop_breaker6 $end
$var wire      1 =    I  $end
$var wire      1 R    Z  $end
$upscope $end


$scope module cdn_loop_breaker7 $end
$var wire      1 <    I  $end
$var wire      1 S    Z  $end
$upscope $end


$scope module cdn_loop_breaker8 $end
$var wire      1 ;    I  $end
$var wire      1 T    Z  $end
$upscope $end


$scope module cdn_loop_breaker9 $end
$var wire      1 :    I  $end
$var wire      1 U    Z  $end
$upscope $end


$scope module cdn_loop_breaker10 $end
$var wire      1 9    I  $end
$var wire      1 V    Z  $end
$upscope $end


$scope module cdn_loop_breaker11 $end
$var wire      1 8    I  $end
$var wire      1 W    Z  $end
$upscope $end


$scope module cdn_loop_breaker12 $end
$var wire      1 7    I  $end
$var wire      1 X    Z  $end
$upscope $end


$scope module cdn_loop_breaker13 $end
$var wire      1 6    I  $end
$var wire      1 Y    Z  $end
$upscope $end


$scope module cdn_loop_breaker14 $end
$var wire      1 5    I  $end
$var wire      1 Z    Z  $end
$upscope $end


$scope module cdn_loop_breaker15 $end
$var wire      1 4    I  $end
$var wire      1 [    Z  $end
$upscope $end


$scope module cdn_loop_breaker16 $end
$var wire      1 3    I  $end
$var wire      1 \    Z  $end
$upscope $end


$scope module cdn_loop_breaker17 $end
$var wire      1 2    I  $end
$var wire      1 ]    Z  $end
$upscope $end

$upscope $end

$upscope $end

$enddefinitions $end
$dumpvars
bx !
x"
x#
x$
x%
0&
0'
x(
x)
x*
0+
x,
x-
x.
x/
x0
x1
x2
x3
x4
x5
x6
x7
x8
x9
x:
x;
x<
x=
x>
x?
x@
xA
xB
xC
xD
xE
xF
xG
xH
xI
xJ
xK
xL
xM
xN
xO
xP
xQ
xR
xS
xT
xU
xV
xW
xX
xY
xZ
x[
x\
x]
x^
x_
x`
0a
xb
xc
xd
xe
xf
xg
xh
xi
xj
xk
xl
xm
xn
xo
xp
xq
xr
$end
#5
1^
#12
0_
#29
02
0]
#47
03
0\
0b
#65
04
0[
0c
1D
#83
05
0Z
#101
06
0Y
0d
#119
07
0X
0e
1E
1n
#137
08
0W
#155
09
0V
0f
#173
0:
0U
0g
1F
1o
#191
0;
0T
#206
0J
0r
#209
0<
0S
0h
#227
0=
0R
0i
1G
#244
10
1%
#245
0>
0Q
#263
0?
0P
0j
#281
0@
0O
0k
1H
1p
#299
0A
0N
#317
0B
0M
0l
#333
0C
0L
0m
1I
1q
#366
0K
#10000
1&
b0 !
0,
0-
0.
0/
1'
1a
#10008
0^
#10016
1_
#10033
12
1]
1b
1c
0D
0n
0o
#10051
13
1\
#10069
14
1[
#10081
1J
1r
#10087
15
1Z
1d
1e
0E
#10105
16
1Y
#10118
00
0a
0`
0%
#10123
17
1X
#10124
11
#10128
1^
#10135
0_
#10141
18
1W
1f
1g
0F
#10152
02
0]
0b
0c
1D
1n
1o
#10159
19
1V
#10170
03
0\
#10177
1:
1U
#10188
04
0[
#10195
1;
1T
1h
1i
0G
0p
0q
#10199
0J
0r
#10206
05
0Z
0d
0e
1E
#10213
1<
1S
#10224
06
0Y
#10231
1=
1R
#10237
10
1a
x`
1%
#10242
07
0X
#10243
1K
#10248
x1
#10249
1>
1Q
1j
1k
0H
#10250
0^
#10258
1_
#10260
08
0W
0f
0g
1F
#10267
1?
1P
#10275
12
1]
1b
1c
0D
0n
0o
#10278
09
0V
#10285
1@
1O
#10293
13
1\
#10296
0:
0U
#10303
1A
1N
1l
1m
0I
#10311
14
1[
#10314
0;
0T
0h
0i
1G
1p
1q
#10321
1B
1M
#10323
1J
1r
#10329
15
1Z
1d
1e
0E
#10332
0<
0S
#10337
1C
1L
#10347
16
1Y
#10350
0=
0R
#10360
00
0a
0`
0%
#10361
0K
#10365
17
1X
#10366
11
#10368
0>
0Q
0j
0k
1H
#10370
1^
#10377
0_
#10383
18
1W
1f
1g
0F
#10386
0?
0P
#10394
02
0]
0b
0c
1D
1n
1o
#10401
19
1V
#10404
0@
0O
#10412
03
0\
#10419
1:
1U
#10422
0A
0N
0l
0m
1I
#10430
04
0[
#10437
1;
1T
1h
1i
0G
0p
0q
#10440
0B
0M
#10441
0J
0r
#10448
05
0Z
0d
0e
1E
#10455
1<
1S
#10456
0C
0L
#10466
06
0Y
#10473
1=
1R
#10479
10
1a
x`
1%
#10484
07
0X
#10485
1K
#10490
x1
#10491
1>
1Q
1j
1k
0H
#10492
0^
#10500
1_
#10502
08
0W
0f
0g
1F
#10509
1?
1P
#10517
12
1]
1b
1c
0D
0n
0o
#10520
09
0V
#10527
1@
1O
#10535
13
1\
#10538
0:
0U
#10545
1A
1N
1l
1m
0I
#10553
14
1[
#10556
0;
0T
0h
0i
1G
1p
1q
#10563
1B
1M
#10565
1J
1r
#10571
15
1Z
1d
1e
0E
#10574
0<
0S
#10579
1C
1L
#10589
16
1Y
#10592
0=
0R
#10602
00
0a
0`
0%
#10603
0K
#10607
17
1X
#10608
11
#10610
0>
0Q
0j
0k
1H
#10612
1^
#10619
0_
#10625
18
1W
1f
1g
0F
#10628
0?
0P
#10636
02
0]
0b
0c
1D
1n
1o
#10643
19
1V
#10646
0@
0O
#10654
03
0\
#10661
1:
1U
#10664
0A
0N
0l
0m
1I
#10672
04
0[
#10679
1;
1T
1h
1i
0G
0p
0q
#10682
0B
0M
#10683
0J
0r
#10690
05
0Z
0d
0e
1E
#10697
1<
1S
#10698
0C
0L
#10708
06
0Y
#10715
1=
1R
#10721
10
1a
x`
1%
#10726
07
0X
#10727
1K
#10732
x1
#10733
1>
1Q
1j
1k
0H
#10734
0^
#10742
1_
#10744
08
0W
0f
0g
1F
#10751
1?
1P
#10759
12
1]
1b
1c
0D
0n
0o
#10762
09
0V
#10769
1@
1O
#10777
13
1\
#10780
0:
0U
#10787
1A
1N
1l
1m
0I
#10795
14
1[
#10798
0;
0T
0h
0i
1G
1p
1q
#10805
1B
1M
#10807
1J
1r
#10813
15
1Z
1d
1e
0E
#10816
0<
0S
#10821
1C
1L
#10831
16
1Y
#10834
0=
0R
#10844
00
0a
0`
0%
#10845
0K
#10849
17
1X
#10850
11
#10852
0>
0Q
0j
0k
1H
#10854
1^
#10861
0_
#10867
18
1W
1f
1g
0F
#10870
0?
0P
#10878
02
0]
0b
0c
1D
1n
1o
#10885
19
1V
#10888
0@
0O
#10896
03
0\
#10903
1:
1U
#10906
0A
0N
0l
0m
1I
#10914
04
0[
#10921
1;
1T
1h
1i
0G
0p
0q
#10924
0B
0M
#10925
0J
0r
#10932
05
0Z
0d
0e
1E
#10939
1<
1S
#10940
0C
0L
#10950
06
0Y
#10957
1=
1R
#10963
10
1a
x`
1%
#10968
07
0X
#10969
1K
#10974
x1
#10975
1>
1Q
1j
1k
0H
#10976
0^
#10984
1_
#10986
08
0W
0f
0g
1F
#10993
1?
1P
#11001
12
1]
1b
1c
0D
0n
0o
#11004
09
0V
#11011
1@
1O
#11019
13
1\
#11022
0:
0U
#11029
1A
1N
1l
1m
0I
#11037
14
1[
#11040
0;
0T
0h
0i
1G
1p
1q
#11047
1B
1M
#11049
1J
1r
#11055
15
1Z
1d
1e
0E
#11058
0<
0S
#11063
1C
1L
#11073
16
1Y
#11076
0=
0R
#11086
00
0a
0`
0%
#11087
0K
#11091
17
1X
#11092
11
#11094
0>
0Q
0j
0k
1H
#11096
1^
#11103
0_
#11109
18
1W
1f
1g
0F
#11112
0?
0P
#11120
02
0]
0b
0c
1D
1n
1o
#11127
19
1V
#11130
0@
0O
#11138
03
0\
#11145
1:
1U
#11148
0A
0N
0l
0m
1I
#11156
04
0[
#11163
1;
1T
1h
1i
0G
0p
0q
#11166
0B
0M
#11167
0J
0r
#11174
05
0Z
0d
0e
1E
#11181
1<
1S
#11182
0C
0L
#11192
06
0Y
#11199
1=
1R
#11205
10
1a
x`
1%
#11210
07
0X
#11211
1K
#11216
x1
#11217
1>
1Q
1j
1k
0H
#11218
0^
#11226
1_
#11228
08
0W
0f
0g
1F
#11235
1?
1P
#11243
12
1]
1b
1c
0D
0n
0o
#11246
09
0V
#11253
1@
1O
#11261
13
1\
#11264
0:
0U
#11271
1A
1N
1l
1m
0I
#11279
14
1[
#11282
0;
0T
0h
0i
1G
1p
1q
#11289
1B
1M
#11291
1J
1r
#11297
15
1Z
1d
1e
0E
#11300
0<
0S
#11305
1C
1L
#11315
16
1Y
#11318
0=
0R
#11328
00
0a
0`
0%
#11329
0K
#11333
17
1X
#11334
11
#11336
0>
0Q
0j
0k
1H
#11338
1^
#11345
0_
#11351
18
1W
1f
1g
0F
#11354
0?
0P
#11362
02
0]
0b
0c
1D
1n
1o
#11369
19
1V
#11372
0@
0O
#11380
03
0\
#11387
1:
1U
#11390
0A
0N
0l
0m
1I
#11398
04
0[
#11405
1;
1T
1h
1i
0G
0p
0q
#11408
0B
0M
#11409
0J
0r
#11416
05
0Z
0d
0e
1E
#11423
1<
1S
#11424
0C
0L
#11434
06
0Y
#11441
1=
1R
#11447
10
1a
x`
1%
#11452
07
0X
#11453
1K
#11458
x1
#11459
1>
1Q
1j
1k
0H
#11460
0^
#11468
1_
#11470
08
0W
0f
0g
1F
#11477
1?
1P
#11485
12
1]
1b
1c
0D
0n
0o
#11488
09
0V
#11495
1@
1O
#11503
13
1\
#11506
0:
0U
#11513
1A
1N
1l
1m
0I
#11521
14
1[
#11524
0;
0T
0h
0i
1G
1p
1q
#11531
1B
1M
#11533
1J
1r
#11539
15
1Z
1d
1e
0E
#11542
0<
0S
#11547
1C
1L
#11557
16
1Y
#11560
0=
0R
#11570
00
0a
0`
0%
#11571
0K
#11575
17
1X
#11576
11
#11578
0>
0Q
0j
0k
1H
#11580
1^
#11587
0_
#11593
18
1W
1f
1g
0F
#11596
0?
0P
#11604
02
0]
0b
0c
1D
1n
1o
#11611
19
1V
#11614
0@
0O
#11622
03
0\
#11629
1:
1U
#11632
0A
0N
0l
0m
1I
#11640
04
0[
#11647
1;
1T
1h
1i
0G
0p
0q
#11650
0B
0M
#11651
0J
0r
#11658
05
0Z
0d
0e
1E
#11665
1<
1S
#11666
0C
0L
#11676
06
0Y
#11683
1=
1R
#11689
10
1a
x`
1%
#11694
07
0X
#11695
1K
#11700
x1
#11701
1>
1Q
1j
1k
0H
#11702
0^
#11710
1_
#11712
08
0W
0f
0g
1F
#11719
1?
1P
#11727
12
1]
1b
1c
0D
0n
0o
#11730
09
0V
#11737
1@
1O
#11745
13
1\
#11748
0:
0U
#11755
1A
1N
1l
1m
0I
#11763
14
1[
#11766
0;
0T
0h
0i
1G
1p
1q
#11773
1B
1M
#11775
1J
1r
#11781
15
1Z
1d
1e
0E
#11784
0<
0S
#11789
1C
1L
#11799
16
1Y
#11802
0=
0R
#11812
00
0a
0`
0%
#11813
0K
#11817
17
1X
#11818
11
#11820
0>
0Q
0j
0k
1H
#11822
1^
#11829
0_
#11835
18
1W
1f
1g
0F
#11838
0?
0P
#11846
02
0]
0b
0c
1D
1n
1o
#11853
19
1V
#11856
0@
0O
#11864
03
0\
#11871
1:
1U
#11874
0A
0N
0l
0m
1I
#11882
04
0[
#11889
1;
1T
1h
1i
0G
0p
0q
#11892
0B
0M
#11893
0J
0r
#11900
05
0Z
0d
0e
1E
#11907
1<
1S
#11908
0C
0L
#11918
06
0Y
#11925
1=
1R
#11931
10
1a
x`
1%
#11936
07
0X
#11937
1K
#11942
x1
#11943
1>
1Q
1j
1k
0H
#11944
0^
#11952
1_
#11954
08
0W
0f
0g
1F
#11961
1?
1P
#11969
12
1]
1b
1c
0D
0n
0o
#11972
09
0V
#11979
1@
1O
#11987
13
1\
#11990
0:
0U
#11997
1A
1N
1l
1m
0I
#12005
14
1[
#12008
0;
0T
0h
0i
1G
1p
1q
#12015
1B
1M
#12017
1J
1r
#12023
15
1Z
1d
1e
0E
#12026
0<
0S
#12031
1C
1L
#12041
16
1Y
#12044
0=
0R
#12054
00
0a
0`
0%
#12055
0K
#12059
17
1X
#12060
11
#12062
0>
0Q
0j
0k
1H
#12064
1^
#12071
0_
#12077
18
1W
1f
1g
0F
#12080
0?
0P
#12088
02
0]
0b
0c
1D
1n
1o
#12095
19
1V
#12098
0@
0O
#12106
03
0\
#12113
1:
1U
#12116
0A
0N
0l
0m
1I
#12124
04
0[
#12131
1;
1T
1h
1i
0G
0p
0q
#12134
0B
0M
#12135
0J
0r
#12142
05
0Z
0d
0e
1E
#12149
1<
1S
#12150
0C
0L
#12160
06
0Y
#12167
1=
1R
#12173
10
1a
x`
1%
#12178
07
0X
#12179
1K
#12184
x1
#12185
1>
1Q
1j
1k
0H
#12186
0^
#12194
1_
#12196
08
0W
0f
0g
1F
#12203
1?
1P
#12211
12
1]
1b
1c
0D
0n
0o
#12214
09
0V
#12221
1@
1O
#12229
13
1\
#12232
0:
0U
#12239
1A
1N
1l
1m
0I
#12247
14
1[
#12250
0;
0T
0h
0i
1G
1p
1q
#12257
1B
1M
#12259
1J
1r
#12265
15
1Z
1d
1e
0E
#12268
0<
0S
#12273
1C
1L
#12283
16
1Y
#12286
0=
0R
#12296
00
0a
0`
0%
#12297
0K
#12301
17
1X
#12302
11
#12304
0>
0Q
0j
0k
1H
#12306
1^
#12313
0_
#12319
18
1W
1f
1g
0F
#12322
0?
0P
#12330
02
0]
0b
0c
1D
1n
1o
#12337
19
1V
#12340
0@
0O
#12348
03
0\
#12355
1:
1U
#12358
0A
0N
0l
0m
1I
#12366
04
0[
#12373
1;
1T
1h
1i
0G
0p
0q
#12376
0B
0M
#12377
0J
0r
#12384
05
0Z
0d
0e
1E
#12391
1<
1S
#12392
0C
0L
#12402
06
0Y
#12409
1=
1R
#12415
10
1a
x`
1%
#12420
07
0X
#12421
1K
#12426
x1
#12427
1>
1Q
1j
1k
0H
#12428
0^
#12436
1_
#12438
08
0W
0f
0g
1F
#12445
1?
1P
#12453
12
1]
1b
1c
0D
0n
0o
#12456
09
0V
#12463
1@
1O
#12471
13
1\
#12474
0:
0U
#12481
1A
1N
1l
1m
0I
#12489
14
1[
#12492
0;
0T
0h
0i
1G
1p
1q
#12499
1B
1M
#12501
1J
1r
#12507
15
1Z
1d
1e
0E
#12510
0<
0S
#12515
1C
1L
#12525
16
1Y
#12528
0=
0R
#12538
00
0a
0`
0%
#12539
0K
#12543
17
1X
#12544
11
#12546
0>
0Q
0j
0k
1H
#12548
1^
#12555
0_
#12561
18
1W
1f
1g
0F
#12564
0?
0P
#12572
02
0]
0b
0c
1D
1n
1o
#12579
19
1V
#12582
0@
0O
#12590
03
0\
#12597
1:
1U
#12600
0A
0N
0l
0m
1I
#12608
04
0[
#12615
1;
1T
1h
1i
0G
0p
0q
#12618
0B
0M
#12619
0J
0r
#12626
05
0Z
0d
0e
1E
#12633
1<
1S
#12634
0C
0L
#12644
06
0Y
#12651
1=
1R
#12657
10
1a
x`
1%
#12662
07
0X
#12663
1K
#12668
x1
#12669
1>
1Q
1j
1k
0H
#12670
0^
#12678
1_
#12680
08
0W
0f
0g
1F
#12687
1?
1P
#12695
12
1]
1b
1c
0D
0n
0o
#12698
09
0V
#12705
1@
1O
#12713
13
1\
#12716
0:
0U
#12723
1A
1N
1l
1m
0I
#12731
14
1[
#12734
0;
0T
0h
0i
1G
1p
1q
#12741
1B
1M
#12743
1J
1r
#12749
15
1Z
1d
1e
0E
#12752
0<
0S
#12757
1C
1L
#12767
16
1Y
#12770
0=
0R
#12780
00
0a
0`
0%
#12781
0K
#12785
17
1X
#12786
11
#12788
0>
0Q
0j
0k
1H
#12790
1^
#12797
0_
#12803
18
1W
1f
1g
0F
#12806
0?
0P
#12814
02
0]
0b
0c
1D
1n
1o
#12821
19
1V
#12824
0@
0O
#12832
03
0\
#12839
1:
1U
#12842
0A
0N
0l
0m
1I
#12850
04
0[
#12857
1;
1T
1h
1i
0G
0p
0q
#12860
0B
0M
#12861
0J
0r
#12868
05
0Z
0d
0e
1E
#12875
1<
1S
#12876
0C
0L
#12886
06
0Y
#12893
1=
1R
#12899
10
1a
x`
1%
#12904
07
0X
#12905
1K
#12910
x1
#12911
1>
1Q
1j
1k
0H
#12912
0^
#12920
1_
#12922
08
0W
0f
0g
1F
#12929
1?
1P
#12937
12
1]
1b
1c
0D
0n
0o
#12940
09
0V
#12947
1@
1O
#12955
13
1\
#12958
0:
0U
#12965
1A
1N
1l
1m
0I
#12973
14
1[
#12976
0;
0T
0h
0i
1G
1p
1q
#12983
1B
1M
#12985
1J
1r
#12991
15
1Z
1d
1e
0E
#12994
0<
0S
#12999
1C
1L
#13009
16
1Y
#13012
0=
0R
#13022
00
0a
0`
0%
#13023
0K
#13027
17
1X
#13028
11
#13030
0>
0Q
0j
0k
1H
#13032
1^
#13039
0_
#13045
18
1W
1f
1g
0F
#13048
0?
0P
#13056
02
0]
0b
0c
1D
1n
1o
#13063
19
1V
#13066
0@
0O
#13074
03
0\
#13081
1:
1U
#13084
0A
0N
0l
0m
1I
#13092
04
0[
#13099
1;
1T
1h
1i
0G
0p
0q
#13102
0B
0M
#13103
0J
0r
#13110
05
0Z
0d
0e
1E
#13117
1<
1S
#13118
0C
0L
#13128
06
0Y
#13135
1=
1R
#13141
10
1a
x`
1%
#13146
07
0X
#13147
1K
#13152
x1
#13153
1>
1Q
1j
1k
0H
#13154
0^
#13162
1_
#13164
08
0W
0f
0g
1F
#13171
1?
1P
#13179
12
1]
1b
1c
0D
0n
0o
#13182
09
0V
#13189
1@
1O
#13197
13
1\
#13200
0:
0U
#13207
1A
1N
1l
1m
0I
#13215
14
1[
#13218
0;
0T
0h
0i
1G
1p
1q
#13225
1B
1M
#13227
1J
1r
#13233
15
1Z
1d
1e
0E
#13236
0<
0S
#13241
1C
1L
#13251
16
1Y
#13254
0=
0R
#13264
00
0a
0`
0%
#13265
0K
#13269
17
1X
#13270
11
#13272
0>
0Q
0j
0k
1H
#13274
1^
#13281
0_
#13287
18
1W
1f
1g
0F
#13290
0?
0P
#13298
02
0]
0b
0c
1D
1n
1o
#13305
19
1V
#13308
0@
0O
#13316
03
0\
#13323
1:
1U
#13326
0A
0N
0l
0m
1I
#13334
04
0[
#13341
1;
1T
1h
1i
0G
0p
0q
#13344
0B
0M
#13345
0J
0r
#13352
05
0Z
0d
0e
1E
#13359
1<
1S
#13360
0C
0L
#13370
06
0Y
#13377
1=
1R
#13383
10
1a
x`
1%
#13388
07
0X
#13389
1K
#13394
x1
#13395
1>
1Q
1j
1k
0H
#13396
0^
#13404
1_
#13406
08
0W
0f
0g
1F
#13413
1?
1P
#13421
12
1]
1b
1c
0D
0n
0o
#13424
09
0V
#13431
1@
1O
#13439
13
1\
#13442
0:
0U
#13449
1A
1N
1l
1m
0I
#13457
14
1[
#13460
0;
0T
0h
0i
1G
1p
1q
#13467
1B
1M
#13469
1J
1r
#13475
15
1Z
1d
1e
0E
#13478
0<
0S
#13483
1C
1L
#13493
16
1Y
#13496
0=
0R
#13506
00
0a
0`
0%
#13507
0K
#13511
17
1X
#13512
11
#13514
0>
0Q
0j
0k
1H
#13516
1^
#13523
0_
#13529
18
1W
1f
1g
0F
#13532
0?
0P
#13540
02
0]
0b
0c
1D
1n
1o
#13547
19
1V
#13550
0@
0O
#13558
03
0\
#13565
1:
1U
#13568
0A
0N
0l
0m
1I
#13576
04
0[
#13583
1;
1T
1h
1i
0G
0p
0q
#13586
0B
0M
#13587
0J
0r
#13594
05
0Z
0d
0e
1E
#13601
1<
1S
#13602
0C
0L
#13612
06
0Y
#13619
1=
1R
#13625
10
1a
x`
1%
#13630
07
0X
#13631
1K
#13636
x1
#13637
1>
1Q
1j
1k
0H
#13638
0^
#13646
1_
#13648
08
0W
0f
0g
1F
#13655
1?
1P
#13663
12
1]
1b
1c
0D
0n
0o
#13666
09
0V
#13673
1@
1O
#13681
13
1\
#13684
0:
0U
#13691
1A
1N
1l
1m
0I
#13699
14
1[
#13702
0;
0T
0h
0i
1G
1p
1q
#13709
1B
1M
#13711
1J
1r
#13717
15
1Z
1d
1e
0E
#13720
0<
0S
#13725
1C
1L
#13735
16
1Y
#13738
0=
0R
#13748
00
0a
0`
0%
#13749
0K
#13753
17
1X
#13754
11
#13756
0>
0Q
0j
0k
1H
#13758
1^
#13765
0_
#13771
18
1W
1f
1g
0F
#13774
0?
0P
#13782
02
0]
0b
0c
1D
1n
1o
#13789
19
1V
#13792
0@
0O
#13800
03
0\
#13807
1:
1U
#13810
0A
0N
0l
0m
1I
#13818
04
0[
#13825
1;
1T
1h
1i
0G
0p
0q
#13828
0B
0M
#13829
0J
0r
#13836
05
0Z
0d
0e
1E
#13843
1<
1S
#13844
0C
0L
#13854
06
0Y
#13861
1=
1R
#13867
10
1a
x`
1%
#13872
07
0X
#13873
1K
#13878
x1
#13879
1>
1Q
1j
1k
0H
#13880
0^
#13888
1_
#13890
08
0W
0f
0g
1F
#13897
1?
1P
#13905
12
1]
1b
1c
0D
0n
0o
#13908
09
0V
#13915
1@
1O
#13923
13
1\
#13926
0:
0U
#13933
1A
1N
1l
1m
0I
#13941
14
1[
#13944
0;
0T
0h
0i
1G
1p
1q
#13951
1B
1M
#13953
1J
1r
#13959
15
1Z
1d
1e
0E
#13962
0<
0S
#13967
1C
1L
#13977
16
1Y
#13980
0=
0R
#13990
00
0a
0`
0%
#13991
0K
#13995
17
1X
#13996
11
#13998
0>
0Q
0j
0k
1H
#14000
1^
#14007
0_
#14013
18
1W
1f
1g
0F
#14016
0?
0P
#14024
02
0]
0b
0c
1D
1n
1o
#14031
19
1V
#14034
0@
0O
#14042
03
0\
#14049
1:
1U
#14052
0A
0N
0l
0m
1I
#14060
04
0[
#14067
1;
1T
1h
1i
0G
0p
0q
#14070
0B
0M
#14071
0J
0r
#14078
05
0Z
0d
0e
1E
#14085
1<
1S
#14086
0C
0L
#14096
06
0Y
#14103
1=
1R
#14109
10
1a
x`
1%
#14114
07
0X
#14115
1K
#14120
x1
