work/top_tb.vcd
$date
    May  3, 2026  14:31:51
$end
$version
    TOOL:	xmsim(64)	23.09-s001
$end
$timescale
    1 ps
$end

$scope module top_tb $end
$var reg       1 !    CLK $end
$var reg       1 "    EN $end
$var reg       1 #    RSTN $end
$var reg       1 $    out_clk $end

$scope module dut $end
$var wire      1 %    CLK  $end
$var wire      1 &    EN  $end
$var wire      1 '    RSTN  $end
$var reg       1 (    out_clk $end
$var reg       1 )    divider_out $end
$var reg       1 *    up_out $end
$var reg       1 +    down_out $end
$var reg       1 ,    dco_out $end
$var reg       5 -    cWord [4:0] $end
$var reg       1 .    nand1_out $end
$var reg       1 /    nand2_out $end
$var reg       1 0    nand3_out $end

$scope module pfd_uut $end
$var wire      1 %    FREF  $end
$var wire      1 1    FDCO  $end
$var wire      1 '    RSTN  $end
$var wire      1 &    EN  $end
$var reg       1 2    UP $end
$var reg       1 3    DOWN $end
$var reg       1 4    Q_UP $end
$var reg       1 5    Q_DOWN $end
$var reg       1 6    AND_RESET $end
$var reg       1 7    FF_RESET $end
$upscope $end


$scope module accum_uut $end
$var wire      1 8    up  $end
$var wire      1 9    down  $end
$var wire      1 :    clk  $end
$var wire      1 '    rstn  $end
$var wire      1 &    en  $end
$var reg       5 ;    controlWord [4:0] $end
$var reg       1 <    nand1 $end
$var reg       1 =    nand2 $end
$var reg       1 >    nand3 $end
$var reg       7 ?    sum [6:0] $end
$upscope $end


$scope module dco_uut $end
$var wire      1 &    EN  $end
$var wire      1 @    NAND_CTRL1  $end
$var wire      1 A    NAND_CTRL2  $end
$var wire      1 B    NAND_CTRL3  $end
$var wire      1 C    CTRL [4] $end
$var wire      1 D    CTRL [3] $end
$var wire      1 E    CTRL [2] $end
$var wire      1 F    CTRL [1] $end
$var wire      1 G    CTRL [0] $end
$var wire      1 H    CLK  $end
$var wire      1 I    UNCONNECTED  $end
$var wire      1 J    delay_out_1  $end
$var wire      1 K    delay_out_2  $end
$var wire      1 L    delay_out_3  $end
$var wire      1 M    delay_out_4  $end
$var wire      1 N    delay_out_5  $end
$var wire      1 O    delay_out_6  $end
$var wire      1 P    delay_out_7  $end
$var wire      1 Q    delay_out_8  $end
$var wire      1 R    delay_out_9  $end
$var wire      1 S    delay_out_10  $end
$var wire      1 T    delay_out_11  $end
$var wire      1 U    delay_out_12  $end
$var wire      1 V    delay_out_13  $end
$var wire      1 W    delay_out_14  $end
$var wire      1 X    delay_out_15  $end
$var wire      1 Y    delay_out_16  $end
$var wire      1 Z    delay_out_17  $end
$var wire      1 [    delay_out_18  $end
$var wire      1 \    mux_1_1out  $end
$var wire      1 ]    mux_1_2out  $end
$var wire      1 ^    mux_1_3out  $end
$var wire      1 _    mux_1_4out  $end
$var wire      1 `    mux_1_5out  $end
$var wire      1 a    mux_1_6out  $end
$var wire      1 b    mux_2_1out  $end
$var wire      1 c    mux_2_2out  $end
$var wire      1 d    n_11  $end
$var wire      1 e    n_12  $end
$var wire      1 f    n_13  $end
$var wire      1 g    n_14  $end
$var wire      1 h    n_15  $end
$var wire      1 i    n_16  $end
$var wire      1 j    n_17  $end
$var wire      1 k    n_18  $end
$var wire      1 l    n_19  $end
$var wire      1 m    n_20  $end
$var wire      1 n    n_21  $end
$var wire      1 o    n_22  $end
$var wire      1 p    n_23  $end
$var wire      1 q    n_24  $end
$var wire      1 r    n_25  $end
$var wire      1 s    n_26  $end
$var wire      1 t    n_27  $end
$var wire      1 u    n_28  $end
$var wire      1 v    nand_out  $end
$var wire      1 w    start_inv_out  $end

$scope module nand_gate_capacitor $end
$var wire      1 H    A1  $end
$var wire      1 @    A2  $end
$var wire      1 A    A3  $end
$var wire      1 B    A4  $end
$var wire      1 I    ZN  $end
$var wire      1 x    I0_out  $end
$upscope $end


$scope module enable_nand $end
$var wire      1 &    A1  $end
$var wire      1 H    A2  $end
$var wire      1 v    ZN  $end
$var wire      1 y    I0_out  $end
$upscope $end


$scope module start_inv $end
$var wire      1 v    I  $end
$var wire      1 w    ZN  $end
$upscope $end


$scope module delay_element1 $end
$var wire      1 w    I  $end
$var wire      1 J    Z  $end
$upscope $end


$scope module delay_element2 $end
$var wire      1 J    I  $end
$var wire      1 K    Z  $end
$upscope $end


$scope module delay_element3 $end
$var wire      1 K    I  $end
$var wire      1 L    Z  $end
$upscope $end


$scope module delay_element4 $end
$var wire      1 L    I  $end
$var wire      1 M    Z  $end
$upscope $end


$scope module delay_element5 $end
$var wire      1 M    I  $end
$var wire      1 N    Z  $end
$upscope $end


$scope module delay_element6 $end
$var wire      1 N    I  $end
$var wire      1 O    Z  $end
$upscope $end


$scope module delay_element7 $end
$var wire      1 O    I  $end
$var wire      1 P    Z  $end
$upscope $end


$scope module delay_element8 $end
$var wire      1 P    I  $end
$var wire      1 Q    Z  $end
$upscope $end


$scope module delay_element9 $end
$var wire      1 Q    I  $end
$var wire      1 R    Z  $end
$upscope $end


$scope module delay_element10 $end
$var wire      1 R    I  $end
$var wire      1 S    Z  $end
$upscope $end


$scope module delay_element11 $end
$var wire      1 S    I  $end
$var wire      1 T    Z  $end
$upscope $end


$scope module delay_element12 $end
$var wire      1 T    I  $end
$var wire      1 U    Z  $end
$upscope $end


$scope module delay_element13 $end
$var wire      1 U    I  $end
$var wire      1 V    Z  $end
$upscope $end


$scope module delay_element14 $end
$var wire      1 V    I  $end
$var wire      1 W    Z  $end
$upscope $end


$scope module delay_element15 $end
$var wire      1 W    I  $end
$var wire      1 X    Z  $end
$upscope $end


$scope module delay_element16 $end
$var wire      1 X    I  $end
$var wire      1 Y    Z  $end
$upscope $end


$scope module delay_element17 $end
$var wire      1 Y    I  $end
$var wire      1 Z    Z  $end
$upscope $end


$scope module delay_element18 $end
$var wire      1 Z    I  $end
$var wire      1 [    Z  $end
$upscope $end


$scope module mux_1_1 $end
$var wire      1 u    I0  $end
$var wire      1 t    I1  $end
$var wire      1 s    I2  $end
$var wire      1 G    S0  $end
$var wire      1 F    S1  $end
$var wire      1 \    ZN  $end
$var wire      1 z    I0_out  $end
$var wire      1 {    I1_out  $end
$upscope $end


$scope module mux_1_2 $end
$var wire      1 r    I0  $end
$var wire      1 q    I1  $end
$var wire      1 p    I2  $end
$var wire      1 G    S0  $end
$var wire      1 F    S1  $end
$var wire      1 ]    ZN  $end
$var wire      1 |    I0_out  $end
$var wire      1 }    I1_out  $end
$upscope $end


$scope module mux_1_3 $end
$var wire      1 o    I0  $end
$var wire      1 n    I1  $end
$var wire      1 m    I2  $end
$var wire      1 G    S0  $end
$var wire      1 F    S1  $end
$var wire      1 ^    ZN  $end
$var wire      1 ~    I0_out  $end
$var wire      1 !!   I1_out  $end
$upscope $end


$scope module mux_1_4 $end
$var wire      1 l    I0  $end
$var wire      1 k    I1  $end
$var wire      1 j    I2  $end
$var wire      1 G    S0  $end
$var wire      1 F    S1  $end
$var wire      1 _    ZN  $end
$var wire      1 "!   I0_out  $end
$var wire      1 #!   I1_out  $end
$upscope $end


$scope module mux_1_5 $end
$var wire      1 i    I0  $end
$var wire      1 h    I1  $end
$var wire      1 g    I2  $end
$var wire      1 G    S0  $end
$var wire      1 F    S1  $end
$var wire      1 `    ZN  $end
$var wire      1 $!   I0_out  $end
$var wire      1 %!   I1_out  $end
$upscope $end


$scope module mux_1_6 $end
$var wire      1 f    I0  $end
$var wire      1 e    I1  $end
$var wire      1 d    I2  $end
$var wire      1 G    S0  $end
$var wire      1 F    S1  $end
$var wire      1 a    ZN  $end
$var wire      1 &!   I0_out  $end
$var wire      1 '!   I1_out  $end
$upscope $end


$scope module mux_2_1 $end
$var wire      1 \    I0  $end
$var wire      1 ]    I1  $end
$var wire      1 ^    I2  $end
$var wire      1 E    S0  $end
$var wire      1 D    S1  $end
$var wire      1 b    ZN  $end
$var wire      1 (!   I0_out  $end
$var wire      1 )!   I1_out  $end
$upscope $end


$scope module mux_2_2 $end
$var wire      1 _    I0  $end
$var wire      1 `    I1  $end
$var wire      1 a    I2  $end
$var wire      1 E    S0  $end
$var wire      1 D    S1  $end
$var wire      1 c    ZN  $end
$var wire      1 *!   I0_out  $end
$var wire      1 +!   I1_out  $end
$upscope $end


$scope module mux_3 $end
$var wire      1 b    I0  $end
$var wire      1 c    I1  $end
$var wire      1 C    S  $end
$var wire      1 H    ZN  $end
$var wire      1 ,!   I0_out  $end
$upscope $end


$scope module cdn_loop_breaker $end
$var wire      1 [    I  $end
$var wire      1 d    Z  $end
$upscope $end


$scope module cdn_loop_breaker1 $end
$var wire      1 Z    I  $end
$var wire      1 e    Z  $end
$upscope $end


$scope module cdn_loop_breaker2 $end
$var wire      1 Y    I  $end
$var wire      1 f    Z  $end
$upscope $end


$scope module cdn_loop_breaker3 $end
$var wire      1 X    I  $end
$var wire      1 g    Z  $end
$upscope $end


$scope module cdn_loop_breaker4 $end
$var wire      1 W    I  $end
$var wire      1 h    Z  $end
$upscope $end


$scope module cdn_loop_breaker5 $end
$var wire      1 V    I  $end
$var wire      1 i    Z  $end
$upscope $end


$scope module cdn_loop_breaker6 $end
$var wire      1 U    I  $end
$var wire      1 j    Z  $end
$upscope $end


$scope module cdn_loop_breaker7 $end
$var wire      1 T    I  $end
$var wire      1 k    Z  $end
$upscope $end


$scope module cdn_loop_breaker8 $end
$var wire      1 S    I  $end
$var wire      1 l    Z  $end
$upscope $end


$scope module cdn_loop_breaker9 $end
$var wire      1 R    I  $end
$var wire      1 m    Z  $end
$upscope $end


$scope module cdn_loop_breaker10 $end
$var wire      1 Q    I  $end
$var wire      1 n    Z  $end
$upscope $end


$scope module cdn_loop_breaker11 $end
$var wire      1 P    I  $end
$var wire      1 o    Z  $end
$upscope $end


$scope module cdn_loop_breaker12 $end
$var wire      1 O    I  $end
$var wire      1 p    Z  $end
$upscope $end


$scope module cdn_loop_breaker13 $end
$var wire      1 N    I  $end
$var wire      1 q    Z  $end
$upscope $end


$scope module cdn_loop_breaker14 $end
$var wire      1 M    I  $end
$var wire      1 r    Z  $end
$upscope $end


$scope module cdn_loop_breaker15 $end
$var wire      1 L    I  $end
$var wire      1 s    Z  $end
$upscope $end


$scope module cdn_loop_breaker16 $end
$var wire      1 K    I  $end
$var wire      1 t    Z  $end
$upscope $end


$scope module cdn_loop_breaker17 $end
$var wire      1 J    I  $end
$var wire      1 u    Z  $end
$upscope $end

$upscope $end


$scope module divide_uut $end
$var wire      1 -!   DCO_output  $end
$var wire      1 '    rstn  $end
$var wire      1 &    en  $end
$var reg       1 .!   PFD_input $end
$var reg       1 /!   half_freq $end
$var reg       1 0!   quarter_freq $end
$var reg       1 1!   eighth_freq $end
$upscope $end

$upscope $end


$scope task generate_wave $end
$var real     64 2!   freq_ghz $end
$var real     64 3!   duration_ns $end
$var real     64 4!   half_period_ns $end
$var real     64 5!   elapsed_ns $end
$var integer  32 6!   half_cycles $end
$var integer  32 7!   i $end
$upscope $end

$upscope $end

$enddefinitions $end
$dumpvars
0!
0"
0#
0$
0%
0&
0'
0(
0)
0*
0+
x,
b0 -
0.
0/
00
01
02
03
04
05
06
07
08
09
x:
b0 ;
0<
0=
0>
b0 ?
0@
0A
0B
0C
0D
0E
0F
0G
xH
xI
xJ
xK
xL
xM
xN
xO
xP
xQ
xR
xS
xT
xU
xV
xW
xX
xY
xZ
x[
x\
x]
x^
x_
x`
xa
xb
xc
xd
xe
xf
xg
xh
xi
xj
xk
xl
xm
xn
xo
xp
xq
xr
xs
xt
xu
xv
xw
0x
0y
xz
x{
x|
x}
x~
x!!
x"!
x#!
x$!
x%!
x&!
x'!
x(!
x)!
x*!
x+!
x,!
x-!
0.!
0/!
00!
01!
r0 2!
r0 3!
r0 4!
r0 5!
bx 6!
bx 7!
$end
#4
1I
#5
1v
#12
0w
#29
0J
0u
0z
0{
1\
1(!
1)!
#47
0K
0t
#65
0L
0s
#76
0b
0,!
#83
0M
0r
0|
0}
1]
#101
0N
0q
#114
1H
1,
1-!
1:
#119
0O
0p
#137
0P
0o
0~
0!!
1^
#155
0Q
0n
#173
0R
0m
#191
0S
0l
0"!
0#!
1_
1*!
1+!
#209
0T
0k
#227
0U
0j
#238
0c
#245
0V
0i
0$!
0%!
1`
#263
0W
0h
#281
0X
0g
#299
0Y
0f
0&!
0'!
1a
#317
0Z
0e
#333
0[
0d
#100000
1#
1"
r0.25 2!
r200 3!
r2 4!
b1100100 6!
b0 7!
1!
1%
1&
1'
1y
17
#100008
0v
#100016
1w
#100033
1J
1u
1z
1{
0\
0(!
0)!
#100051
1K
1t
#100069
1L
1s
#100081
1b
1,!
#100087
1M
1r
1|
1}
0]
#100105
1N
1q
#100118
0H
0y
0,
0-!
0:
#100123
1O
1p
#100128
1v
#100135
0w
#100141
1P
1o
1~
1!!
0^
#100152
0J
0u
0z
0{
1\
1(!
1)!
#100159
1Q
1n
#100170
0K
0t
#100177
1R
1m
#100188
0L
0s
#100195
1S
1l
1"!
1#!
0_
0*!
0+!
#100199
0b
0,!
#100206
0M
0r
0|
0}
1]
#100213
1T
1k
#100224
0N
0q
#100231
1U
1j
#100237
1H
1y
1,
1-!
1:
1/!
10!
11!
1.!
1)
1(
11
1$
15
13
1+
19
#100242
0O
0p
#100243
1c
#100249
1V
1i
1$!
1%!
0`
#100250
0v
#100258
1w
#100260
0P
0o
0~
0!!
1^
#100267
1W
1h
#100275
1J
1u
1z
1{
0\
0(!
0)!
#100278
0Q
0n
#100285
1X
1g
#100293
1K
1t
#100296
0R
0m
#100303
1Y
1f
1&!
1'!
0a
#100311
1L
1s
#100314
0S
0l
0"!
0#!
1_
1*!
1+!
#100321
1Z
1e
#100323
1b
1,!
#100329
1M
1r
1|
1}
0]
#100332
0T
0k
#100337
1[
1d
#100347
1N
1q
#100350
0U
0j
#100360
0H
0y
0,
0-!
0:
#100361
0c
#100365
1O
1p
#100368
0V
0i
0$!
0%!
1`
#100370
1v
#100377
0w
#100383
1P
1o
1~
1!!
0^
#100386
0W
0h
#100394
0J
0u
0z
0{
1\
1(!
1)!
#100401
1Q
1n
#100404
0X
0g
#100412
0K
0t
#100419
1R
1m
#100422
0Y
0f
0&!
0'!
1a
#100430
0L
0s
#100437
1S
1l
1"!
1#!
0_
0*!
0+!
#100440
0Z
0e
#100441
0b
0,!
#100448
0M
0r
0|
0}
1]
#100455
1T
1k
#100456
0[
0d
#100466
0N
0q
#100473
1U
1j
#100479
1H
1y
1,
1-!
1:
0/!
b1 ?
#100484
0O
0p
#100485
1c
#100491
1V
1i
1$!
1%!
0`
#100492
0v
#100500
1w
#100502
0P
0o
0~
0!!
1^
#100509
1W
1h
#100517
1J
1u
1z
1{
0\
0(!
0)!
#100520
0Q
0n
#100527
1X
1g
#100535
1K
1t
#100538
0R
0m
#100545
1Y
1f
1&!
1'!
0a
#100553
1L
1s
#100556
0S
0l
0"!
0#!
1_
1*!
1+!
#100563
1Z
1e
#100565
1b
1,!
#100571
1M
1r
1|
1}
0]
#100574
0T
0k
#100579
1[
1d
#100589
1N
1q
#100592
0U
0j
#100602
0H
0y
0,
0-!
0:
#100603
0c
#100607
1O
1p
#100610
0V
0i
0$!
0%!
1`
#100612
1v
#100619
0w
#100625
1P
1o
1~
1!!
0^
#100628
0W
0h
#100636
0J
0u
0z
0{
1\
1(!
1)!
#100643
1Q
1n
#100646
0X
0g
#100654
0K
0t
#100661
1R
1m
#100664
0Y
0f
0&!
0'!
1a
#100672
0L
0s
#100679
1S
1l
1"!
1#!
0_
0*!
0+!
#100682
0Z
0e
#100683
0b
0,!
#100690
0M
0r
0|
0}
1]
#100697
1T
1k
#100698
0[
0d
#100708
0N
0q
#100715
1U
1j
#100721
1H
1y
1,
1-!
1:
1/!
b10 ?
1<
1.
1@
00!
#100726
0O
0p
#100727
1c
#100733
1V
1i
1$!
1%!
0`
#100734
0v
#100742
1w
#100744
0P
0o
0~
0!!
1^
#100751
1W
1h
#100759
1J
1u
1z
1{
0\
0(!
0)!
#100762
0Q
0n
#100769
1X
1g
#100777
1K
1t
#100780
0R
0m
#100787
1Y
1f
1&!
1'!
0a
#100795
1L
1s
#100798
0S
0l
0"!
0#!
1_
1*!
1+!
#100805
1Z
1e
#100807
1b
1,!
#100813
1M
1r
1|
1}
0]
#100816
0T
0k
#100821
1[
1d
#100831
1N
1q
#100834
0U
0j
#100844
0H
0y
0,
0-!
0:
#100845
0c
#100849
1O
1p
#100852
0V
0i
0$!
0%!
1`
#100854
1v
#100861
0w
#100867
1P
1o
1~
1!!
0^
#100870
0W
0h
#100878
0J
0u
0z
0{
1\
1(!
1)!
#100885
1Q
1n
#100888
0X
0g
#100896
0K
0t
#100903
1R
1m
#100906
0Y
0f
0&!
0'!
1a
#100914
0L
0s
#100921
1S
1l
1"!
1#!
0_
0*!
0+!
#100924
0Z
0e
#100925
0b
0,!
#100932
0M
0r
0|
0}
1]
#100939
1T
1k
#100940
0[
0d
#100950
0N
0q
#100957
1U
1j
#100963
1H
1y
1,
1-!
1:
0/!
b11 ?
1=
1/
1A
#100968
0O
0p
#100969
1c
#100975
1V
1i
1$!
1%!
0`
#100976
0v
#100984
1w
#100986
0P
0o
0~
0!!
1^
#100993
1W
1h
#101001
1J
1u
1z
1{
0\
0(!
0)!
#101004
0Q
0n
#101011
1X
1g
#101019
1K
1t
#101022
0R
0m
#101029
1Y
1f
1&!
1'!
0a
#101037
1L
1s
#101040
0S
0l
0"!
0#!
1_
1*!
1+!
#101047
1Z
1e
#101049
1b
1,!
#101055
1M
1r
1|
1}
0]
#101058
0T
0k
#101063
1[
1d
#101073
1N
1q
#101076
0U
0j
#101086
0H
0y
0,
0-!
0:
#101087
0c
#101091
1O
1p
#101094
0V
0i
0$!
0%!
1`
#101096
1v
#101103
0w
#101109
1P
1o
1~
1!!
0^
#101112
0W
0h
#101120
0J
0u
0z
0{
1\
1(!
1)!
#101127
1Q
1n
#101130
0X
0g
#101138
0K
0t
#101145
1R
1m
#101148
0Y
0f
0&!
0'!
1a
#101156
0L
0s
#101163
1S
1l
1"!
1#!
0_
0*!
0+!
#101166
0Z
0e
#101167
0b
0,!
#101174
0M
0r
0|
0}
1]
#101181
1T
1k
#101182
0[
0d
#101192
0N
0q
#101199
1U
1j
#101205
1H
1y
1,
1-!
1:
1/!
b100 ?
1>
b1 ;
b1 -
10
1B
1G
1x
10!
01!
0.!
0)
0(
01
0$
#101210
0O
0p
#101211
1c
#101216
0I
#101217
1V
1i
#101218
0v
#101226
1w
#101228
0P
0o
#101235
1W
1h
1$!
1%!
0`
#101243
1J
1u
#101246
0Q
0n
0~
0!!
1^
#101253
1X
1g
#101261
1K
1t
1z
1{
0\
0(!
0)!
#101264
0R
0m
#101271
1Y
1f
#101279
1L
1s
#101282
0S
0l
#101289
1Z
1e
1&!
1'!
0a
#101297
1M
1r
#101300
0T
0k
0"!
0#!
1_
1*!
1+!
#101305
1[
1d
#101309
1b
1,!
#101315
1N
1q
1|
1}
0]
#101318
0U
0j
#101333
1O
1p
#101336
0V
0i
#101346
0H
0y
0x
0,
0-!
0:
#101347
0c
#101351
1P
1o
#101352
1I
#101354
0W
0h
0$!
0%!
1`
#101356
1v
#101363
0w
#101369
1Q
1n
1~
1!!
0^
#101372
0X
0g
#101380
0J
0u
#101387
1R
1m
#101390
0Y
0f
#101398
0K
0t
0z
0{
1\
1(!
1)!
#101405
1S
1l
#101408
0Z
0e
0&!
0'!
1a
#101416
0L
0s
#101423
1T
1k
1"!
1#!
0_
0*!
0+!
#101424
0[
0d
#101434
0M
0r
#101441
1U
1j
#101445
0b
0,!
#101452
0N
0q
0|
0}
1]
#101459
1V
1i
#101470
0O
0p
#101471
1c
#101477
1W
1h
1$!
1%!
0`
#101483
1H
1y
1x
1,
1-!
1:
0/!
b101 ?
0<
0=
0>
00
0/
0.
0@
0A
0B
0x
#101488
0P
0o
#101495
1X
1g
#101496
0v
#101504
1w
#101506
0Q
0n
0~
0!!
1^
#101513
1Y
1f
#101521
1J
1u
#101524
0R
0m
#101531
1Z
1e
1&!
1'!
0a
#101539
1K
1t
1z
1{
0\
0(!
0)!
#101542
0S
0l
#101547
1[
1d
#101557
1L
1s
#101560
0T
0k
0"!
0#!
1_
1*!
1+!
#101575
1M
1r
#101578
0U
0j
#101587
1b
1,!
#101593
1N
1q
1|
1}
0]
#101596
0V
0i
#101607
0c
#101611
1O
1p
#101614
0W
0h
0$!
0%!
1`
#101624
0H
0y
0,
0-!
0:
#101629
1P
1o
#101632
0X
0g
#101634
1v
#101641
0w
#101647
1Q
1n
1~
1!!
0^
#101650
0Y
0f
#101658
0J
0u
#101665
1R
1m
#101668
0Z
0e
0&!
0'!
1a
#101676
0K
0t
0z
0{
1\
1(!
1)!
#101683
1S
1l
#101684
0[
0d
#101694
0L
0s
#101701
1T
1k
1"!
1#!
0_
0*!
0+!
#101712
0M
0r
#101719
1U
1j
#101723
0b
0,!
#101730
0N
0q
0|
0}
1]
#101737
1V
1i
#101748
0O
0p
#101749
1c
#101755
1W
1h
1$!
1%!
0`
#101761
1H
1y
1,
1-!
1:
1/!
b110 ?
1<
1.
1@
00!
#101766
0P
0o
#101773
1X
1g
#101774
0v
#101782
1w
#101784
0Q
0n
0~
0!!
1^
#101791
1Y
1f
#101799
1J
1u
#101802
0R
0m
#101809
1Z
1e
1&!
1'!
0a
#101817
1K
1t
1z
1{
0\
0(!
0)!
#101820
0S
0l
#101825
1[
1d
#101835
1L
1s
#101838
0T
0k
0"!
0#!
1_
1*!
1+!
#101853
1M
1r
#101856
0U
0j
#101865
1b
1,!
#101871
1N
1q
1|
1}
0]
#101874
0V
0i
#101885
0c
#101889
1O
1p
#101892
0W
0h
0$!
0%!
1`
#101902
0H
0y
0,
0-!
0:
#101907
1P
1o
#101910
0X
0g
#101912
1v
#101919
0w
#101925
1Q
1n
1~
1!!
0^
#101928
0Y
0f
#101936
0J
0u
#101943
1R
1m
#101946
0Z
0e
0&!
0'!
1a
#101954
0K
0t
0z
0{
1\
1(!
1)!
#101961
1S
1l
#101962
0[
0d
#101972
0L
0s
#101979
1T
1k
1"!
1#!
0_
0*!
0+!
#101990
0M
0r
#101997
1U
1j
#102000
b1 7!
0!
0%
#102001
0b
0,!
#102008
0N
0q
0|
0}
1]
#102015
1V
1i
#102026
0O
0p
#102027
1c
#102033
1W
1h
1$!
1%!
0`
#102039
1H
1y
1,
1-!
1:
0/!
b111 ?
1=
1/
1A
#102044
0P
0o
#102051
1X
1g
#102052
0v
#102060
1w
#102062
0Q
0n
0~
0!!
1^
#102069
1Y
1f
#102077
1J
1u
#102080
0R
0m
#102087
1Z
1e
1&!
1'!
0a
#102095
1K
1t
1z
1{
0\
0(!
0)!
#102098
0S
0l
#102103
1[
1d
#102113
1L
1s
#102116
0T
0k
0"!
0#!
1_
1*!
1+!
#102131
1M
1r
#102134
0U
0j
#102143
1b
1,!
#102149
1N
1q
1|
1}
0]
#102152
0V
0i
#102163
0c
#102167
1O
1p
#102170
0W
0h
0$!
0%!
1`
#102180
0H
0y
0,
0-!
0:
#102185
1P
1o
#102188
0X
0g
#102190
1v
#102197
0w
#102203
1Q
1n
1~
1!!
0^
#102206
0Y
0f
#102214
0J
0u
#102221
1R
1m
#102224
0Z
0e
0&!
0'!
1a
#102232
0K
0t
0z
0{
1\
1(!
1)!
#102239
1S
1l
#102240
0[
0d
#102250
0L
0s
#102257
1T
1k
1"!
1#!
0_
0*!
0+!
#102268
0M
0r
#102275
1U
1j
#102279
0b
0,!
#102286
0N
0q
0|
0}
1]
#102293
1V
1i
#102304
0O
0p
#102305
1c
#102311
1W
1h
1$!
1%!
0`
#102317
1H
1y
1,
1-!
1:
1/!
b1000 ?
1>
b10 ;
b10 -
10
1B
1F
0G
0%!
1x
10!
11!
1.!
1)
1(
11
1$
#102322
0P
0o
0~
#102328
0I
#102329
1X
1g
1%!
#102330
0v
#102338
1w
#102340
0Q
0n
#102347
1Y
1f
1&!
#102355
1J
1u
1z
#102358
0R
0m
0!!
1^
#102365
1Z
1e
#102373
1K
1t
#102376
0S
0l
0"!
#102381
1[
1d
1'!
0a
#102391
1L
1s
1{
0\
0(!
0)!
#102394
0T
0k
#102409
1M
1r
1|
#102412
0U
0j
0#!
1_
1*!
1+!
#102427
1N
1q
#102430
0V
0i
0$!
#102439
1b
1,!
#102445
1O
1p
1}
0]
#102448
0W
0h
#102459
0c
#102463
1P
1o
1~
#102466
0X
0g
0%!
1`
#102476
0H
0y
0x
0,
0-!
0:
#102481
1Q
1n
#102482
1I
#102484
0Y
0f
0&!
#102486
1v
#102493
0w
#102499
1R
1m
1!!
0^
#102502
0Z
0e
#102510
0J
0u
0z
#102517
1S
1l
1"!
#102518
0[
0d
0'!
1a
#102528
0K
0t
#102535
1T
1k
#102546
0L
0s
0{
1\
1(!
1)!
#102553
1U
1j
1#!
0_
0*!
0+!
#102564
0M
0r
0|
#102571
1V
1i
1$!
#102582
0N
0q
#102589
1W
1h
#102593
0b
0,!
#102600
0O
0p
0}
1]
#102601
1c
#102607
1X
1g
1%!
0`
#102618
0P
0o
0~
#102625
1Y
1f
1&!
#102631
1H
1y
1x
1,
1-!
1:
0/!
b1001 ?
0<
0=
0>
00
0/
0.
0@
0A
0B
0x
#102636
0Q
0n
#102643
1Z
1e
#102644
0v
#102652
1w
#102654
0R
0m
0!!
1^
#102659
1[
1d
1'!
0a
#102669
1J
1u
1z
#102672
0S
0l
0"!
#102687
1K
1t
#102690
0T
0k
#102705
1L
1s
1{
0\
0(!
0)!
#102708
0U
0j
0#!
1_
1*!
1+!
#102723
1M
1r
1|
#102726
0V
0i
0$!
#102741
1N
1q
#102744
0W
0h
#102753
1b
1,!
#102755
0c
#102759
1O
1p
1}
0]
#102762
0X
0g
0%!
1`
#102777
1P
1o
1~
#102780
0Y
0f
0&!
#102790
0H
0y
0,
0-!
0:
#102795
1Q
1n
#102798
0Z
0e
#102800
1v
#102807
0w
#102813
1R
1m
1!!
0^
#102814
0[
0d
0'!
1a
#102824
0J
0u
0z
#102831
1S
1l
1"!
#102842
0K
0t
#102849
1T
1k
#102860
0L
0s
0{
1\
1(!
1)!
#102867
1U
1j
1#!
0_
0*!
0+!
#102878
0M
0r
0|
#102885
1V
1i
1$!
#102896
0N
0q
#102903
1W
1h
#102907
0b
0,!
#102914
0O
0p
0}
1]
#102915
1c
#102921
1X
1g
1%!
0`
#102932
0P
0o
0~
#102939
1Y
1f
1&!
#102945
1H
1y
1,
1-!
1:
1/!
b1010 ?
1<
1.
1@
00!
#102950
0Q
0n
#102957
1Z
1e
#102958
0v
#102966
1w
#102968
0R
0m
0!!
1^
#102973
1[
1d
1'!
0a
#102983
1J
1u
1z
#102986
0S
0l
0"!
#103001
1K
1t
#103004
0T
0k
#103019
1L
1s
1{
0\
0(!
0)!
#103022
0U
0j
0#!
1_
1*!
1+!
#103037
1M
1r
1|
#103040
0V
0i
0$!
#103055
1N
1q
#103058
0W
0h
#103067
1b
1,!
#103069
0c
#103073
1O
1p
1}
0]
#103076
0X
0g
0%!
1`
#103091
1P
1o
1~
#103094
0Y
0f
0&!
#103104
0H
0y
0,
0-!
0:
#103109
1Q
1n
#103112
0Z
0e
#103114
1v
#103121
0w
#103127
1R
1m
1!!
0^
#103128
0[
0d
0'!
1a
#103138
0J
0u
0z
#103145
1S
1l
1"!
#103156
0K
0t
#103163
1T
1k
#103174
0L
0s
0{
1\
1(!
1)!
#103181
1U
1j
1#!
0_
0*!
0+!
#103192
0M
0r
0|
#103199
1V
1i
1$!
#103210
0N
0q
#103217
1W
1h
#103221
0b
0,!
#103228
0O
0p
0}
1]
#103229
1c
#103235
1X
1g
1%!
0`
#103246
0P
0o
0~
#103253
1Y
1f
1&!
#103259
1H
1y
1,
1-!
1:
0/!
b1011 ?
1=
1/
1A
#103264
0Q
0n
#103271
1Z
1e
#103272
0v
#103280
1w
#103282
0R
0m
0!!
1^
#103287
1[
1d
1'!
0a
#103297
1J
1u
1z
#103300
0S
0l
0"!
#103315
1K
1t
#103318
0T
0k
#103333
1L
1s
1{
0\
0(!
0)!
#103336
0U
0j
0#!
1_
1*!
1+!
#103351
1M
1r
1|
#103354
0V
0i
0$!
#103369
1N
1q
#103372
0W
0h
#103381
1b
1,!
#103383
0c
#103387
1O
1p
1}
0]
#103390
0X
0g
0%!
1`
#103405
1P
1o
1~
#103408
0Y
0f
0&!
#103418
0H
0y
0,
0-!
0:
#103423
1Q
1n
#103426
0Z
0e
#103428
1v
#103435
0w
#103441
1R
1m
1!!
0^
#103442
0[
0d
0'!
1a
#103452
0J
0u
0z
#103459
1S
1l
1"!
#103470
0K
0t
#103477
1T
1k
#103488
0L
0s
0{
1\
1(!
1)!
#103495
1U
1j
1#!
0_
0*!
0+!
#103506
0M
0r
0|
#103513
1V
1i
1$!
#103524
0N
0q
#103531
1W
1h
#103535
0b
0,!
#103542
0O
0p
0}
1]
#103543
1c
#103549
1X
1g
1%!
0`
#103560
0P
0o
0~
#103567
1Y
1f
1&!
#103573
1H
1y
1,
1-!
1:
1/!
b1100 ?
1>
b11 ;
b11 -
10
1B
1G
0&!
1~
1x
10!
01!
0.!
0)
0(
01
0$
#103578
0Q
0n
0~
#103584
0I
#103585
1Z
1e
1&!
#103586
0v
#103594
1w
#103596
0R
0m
0!!
1^
#103601
1[
1d
1'!
0a
#103611
1J
1u
#103614
0S
0l
#103629
1K
1t
1z
#103632
0T
0k
0"!
#103647
1L
1s
1{
0\
0(!
0)!
#103650
0U
0j
0#!
1_
1*!
1+!
#103665
1M
1r
#103668
0V
0i
#103683
1N
1q
1|
#103686
0W
0h
0$!
#103695
1b
1,!
#103697
0c
#103701
1O
1p
1}
0]
#103704
0X
0g
0%!
1`
#103719
1P
1o
#103722
0Y
0f
#103732
0H
0y
0x
0,
0-!
0:
#103737
1Q
1n
1~
#103738
1I
#103740
0Z
0e
0&!
